
Genome CF:

New better solution at iteration 1658513:
Genome:
(68 genes) 0.9999999999999999 0.5277141802267615 | 0.9729089334091935 0.9454551515007945 | 0.8864762555374751 0.051827633074041216 | 0.35543810159864286 0.8107437233342842 | 0.0 0.63015939331041 | 0.43895510629399953 0.24039474642487393 | 0.6921199186536735 0.47040566494748204 | 0.11005998696032329 0.9378743806701041 | 0.2907412145706797 0.9799749171033391 | 0.49151486551178597 0.9125998058757078 | 0.6308891594977295 0.07073973139498857 | 0.12501853851243064 0.9648584956426162 | 0.2976605077988583 0.21931736373570454 | 0.29721417271966344 0.7958657301931751 | 0.8459691513788163 0.9376422496504055 | 0.7190557018161648 0.4622044180681645 | 0.7576627403220287 0.3752464173399289 | 0.14605526111675976 0.4310920828390198 | 0.2778709724896696 0.9110537106600537 | 0.0 0.9999999999999999 | 0.9999999999999999 0.9534317880956037 | 0.0 0.9737243663043659 | 0.038657021094934865 0.8877657782025119 | 0.13757949718115836 0.4443289939430555 | 0.6199851221768496 0.8207840779683018 | 0.7655501369014435 0.2677306481822046 | 0.36750654889530787 0.9110845617194583 | 0.731225556761189 0.3978553143431804 | 0.9999999999999999 0.9139136383571999 | 0.21719933292049798 0.972297298752421 | 0.041442221029698335 0.9332609340187934 | 0.45697501766121285 0.027120073634448905 | 0.20607343955684176 0.5257880890710823 | 0.7414220745035044 0.5258195031324813
Intermediate:
(84 slots) 3:80000 | 1:79898 | 2:79793 | 4:77000 | 6:68022 | 5:67808 | 8:67000 | 9:67000 | 11:60000 | 10:59990 | 0:59865 | 12:57650 | 14:51056 | 15:51000 | 13:50563 | 16:50000 | 7:39255 | 18:39176 | 19:39000 | 20:38900 | 17:35267 | 0:35134 | 22:35024 | 23:34300 | 25:30000 | 26:30000 | 24:29842 | 7:29745 | 27:28300 | 21:28106 | 28:28000 | 29:26350 | 32:21000 | 33:21000 | 30:20929 | 31:20816 | 1:10102 | 34:10063 | 39:10000 | 40:10000 | 34:8937 | 21:8894 | 35:8632 | 36:8431 | 17:8233 | 38:8055 | 41:7800 | 35:7418 | 2:5707 | 42:5625 | 36:5569 | 13:4937 | 30:4571 | 43:4500 | 5:4492 | 37:4465 | 37:3909 | 18:3824 | 44:3793 | 37:3526 | 45:3000 | 38:2945 | 46:2900 | 24:2858 | 31:1584 | 47:1450 | 6:1377 | 6:1101 | 22:976 | 48:945 | 10:899 | 10:811 | 14:649 | 49:395 | 42:375 | 49:338 | 14:228 | 44:207 | 14:167 | 48:55 | 49:15 | 49:2 | 0:1 | 0:0
Phenotype:
Offset plates:
|  2|  3|  4|  5|	 80000 printings
|  6|  7|  9| 10|	 68022 printings
|  1| 11| 12| 13|	 60000 printings
| 14| 15| 16| 17|	 51056 printings
|  8| 19| 20| 21|	 39255 printings
|  1| 18| 23| 24|	 35267 printings
|  8| 25| 26| 27|	 30000 printings
| 22| 28| 29| 30|	 28300 printings
| 31| 32| 33| 34|	 21000 printings
|  2| 35| 40| 41|	 10102 printings
| 22| 35| 36| 37|	  8937 printings
| 18| 36| 39| 42|	  8233 printings
|  3| 14| 37| 43|	  5707 printings
|  6| 31| 38| 44|	  4571 printings
| 19| 38| 38| 45|	  3909 printings
| 25| 39| 46| 47|	  3000 printings
|  7|  7| 32| 48|	  1584 printings
| 11| 11| 23| 49|	   976 printings
| 15| 43| 50| 50|	   649 printings
| 15| 15| 45| 49|	   228 printings
|  1|  1| 50| 50|	    15 printings
Printings per book cover:
  1: 95297 printings
  2: 90102 printings
  3: 85707 printings
  4: 80000 printings
  5: 80000 printings
  6: 72593 printings
  7: 71190 printings
  8: 69255 printings
  9: 68022 printings
 10: 68022 printings
 11: 61952 printings
 12: 60000 printings
 13: 60000 printings
 14: 56763 printings
 15: 52161 printings
 16: 51056 printings
 17: 51056 printings
 18: 43500 printings
 19: 43164 printings
 20: 39255 printings
 21: 39255 printings
 22: 37237 printings
 23: 36243 printings
 24: 35267 printings
 25: 33000 printings
 26: 30000 printings
 27: 30000 printings
 28: 28300 printings
 29: 28300 printings
 30: 28300 printings
 31: 25571 printings
 32: 22584 printings
 33: 21000 printings
 34: 21000 printings
 35: 19039 printings
 36: 17170 printings
 37: 14644 printings
 38: 12389 printings
 39: 11233 printings
 40: 10102 printings
 41: 10102 printings
 42: 8233 printings
 43: 6356 printings
 44: 4571 printings
 45: 4137 printings
 46: 3000 printings
 47: 3000 printings
 48: 1584 printings
 49: 1204 printings
 50: 1328 printings
Total printings: 460811
Quality: 6585495.84

Genome PPC:

New better solution at iteration 445389:
Genome:
(118 genes) 0.6900425550255269;0.7229282916120522;0.36684561051230435;0.5458149861681167;0.05307324261815821;0.6115124265982743;0.18045332710193762;0.7772449365934597;0.8463526910084196;0.7111157038022439;0.12085092709141779;0.04603789321431383;0.9175008221265418;0.9531537055423187;0.027227407262796377;0.5905346255821271;0.14995598308891156;0.334373091297258;0.8811493334574507;0.8845336539314402;0.4016216634587499;0.0240733860879967;0.45347138541125653;0.0983721607505047;0.3371062793358453;0.281269214480831;0.24711968229821996;0.7873147539688946;0.16722464495118403;0.33157124492065143;0.3354841962369655;0.05429366066680311;0.015200116272389153;0.380338395584782;0.07983793124529513;0.9033833251689246;0.11042662199253232;0.04213482065458374;0.5126507355966067;0.9991621117220993;0.11220854609306916;0.8765234919867234;0.1381305176700956;0.9575809448642705;0.6249287556132759;0.4297442171211014;0.3636266830166794;0.6024511521184499;0.8018148964489376;0.0;0.03185364997525362;0.4884300592180702;0.2760777811947671;0.960966565200608;0.8703424536347448;0.123012019678553;0.5411976434971436;0.585031809740966;0.05826688476686926;0.07348355532441578;0.22498694763193003;0.5744142680356271;0.8161094757367482;0.8790865397617391;0.18295433067864955;0.027673727644049045;0.4628097643845902;0.8906775741000811;0.011902928266923692;0.13242925976546607;0.06487286108644957;0.689152760273175;0.01996051273039997;0.15472617503274;0.03277221898248418;0.4013679945247206;0.652725785330448;0.20350353696787118;0.0;0.22585193226522987;0.4077972357674125;0.8561814947604008;0.29090286964767115;0.9849241230874408;0.786202286931304;0.870390720473196;0.8198919613570645;0.0;0.9999999999999999;0.39582656316789944;0.0;0.32475959733735743;0.5655584513534552;0.7267746026401979;0.814548579543189;0.6024004086670633;0.8007549107601353;0.632031518827189;0.6047218385842108;0.9435908537875102;0.8337401724740988;0.09944405050716826;0.0017743360878365033;0.23397621939881064;0.26613190790897967;0.7644010081603995;0.004198399782161105;0.915564833749;0.4878157304814629;0.7721567960045846;0.09924411194002322;0.050515889285272245;0.9695512962959996;0.3253053249848847;0.8629499260259993;0.42194614999028035;0.9258671050481847;0.6994164676757468
Intermediate:
(84 slots) 4:72392 | 5:72300 | 3:72284 | 1:71823 | 2:67295 | 7:67272 | 8:67000 | 9:67000 | 11:57773 | 6:57739 | 12:57650 | 13:55500 | 14:52100 | 10:52061 | 0:51585 | 15:51000 | 17:43500 | 0:43415 | 16:43303 | 18:43000 | 22:36000 | 21:35996 | 20:35965 | 23:34300 | 25:30000 | 26:30000 | 24:29877 | 27:28300 | 32:21000 | 33:21000 | 31:20978 | 19:20695 | 19:18305 | 2:18205 | 1:18177 | 30:18061 | 34:16432 | 29:16339 | 28:16062 | 35:16050 | 6:11971 | 28:11938 | 37:11900 | 36:11713 | 29:10011 | 39:10000 | 40:10000 | 10:9639 | 41:7800 | 3:7716 | 30:7439 | 16:6697 | 4:4608 | 42:4482 | 38:4452 | 38:4237 | 45:2971 | 20:2935 | 46:2900 | 24:2823 | 38:2311 | 44:2298 | 36:2287 | 11:2227 | 7:1728 | 44:1702 | 43:1683 | 42:1518 | 43:1435 | 31:1422 | 34:1417 | 43:1382 | 34:1151 | 21:1004 | 6:790 | 49:750 | 48:744 | 47:726 | 47:724 | 48:256 | 45:29 | 11:0 | 16:0 | 49:0
Phenotype:
Offset plates:
|  2|  4|  5|  6|	 72392 printings
|  3|  8|  9| 10|	 67295 printings
|  7| 12| 13| 14|	 57773 printings
|  1| 11| 15| 16|	 52100 printings
|  1| 17| 18| 19|	 43500 printings
| 21| 22| 23| 24|	 36000 printings
| 25| 26| 27| 28|	 30000 printings
| 20| 32| 33| 34|	 21000 printings
|  2|  3| 20| 31|	 18305 printings
| 29| 30| 35| 36|	 16432 printings
|  7| 29| 37| 38|	 11971 printings
| 11| 30| 40| 41|	 10011 printings
|  4| 17| 31| 42|	  7800 printings
|  5| 39| 39| 43|	  4608 printings
| 21| 25| 46| 47|	  2971 printings
| 12| 37| 39| 45|	  2311 printings
|  8| 43| 44| 45|	  1728 printings
| 32| 35| 44| 44|	  1435 printings
|  7| 22| 35| 50|	  1151 printings
| 48| 48| 49| 49|	   744 printings
| 12| 17| 46| 50|	    29 printings
Printings per book cover:
  1: 95600 printings
  2: 90697 printings
  3: 85600 printings
  4: 80192 printings
  5: 77000 printings
  6: 72392 printings
  7: 70895 printings
  8: 69023 printings
  9: 67295 printings
 10: 67295 printings
 11: 62111 printings
 12: 60113 printings
 13: 57773 printings
 14: 57773 printings
 15: 52100 printings
 16: 52100 printings
 17: 51329 printings
 18: 43500 printings
 19: 43500 printings
 20: 39305 printings
 21: 38971 printings
 22: 37151 printings
 23: 36000 printings
 24: 36000 printings
 25: 32971 printings
 26: 30000 printings
 27: 30000 printings
 28: 30000 printings
 29: 28403 printings
 30: 26443 printings
 31: 26105 printings
 32: 22435 printings
 33: 21000 printings
 34: 21000 printings
 35: 19018 printings
 36: 16432 printings
 37: 14282 printings
 38: 11971 printings
 39: 11527 printings
 40: 10011 printings
 41: 10011 printings
 42: 7800 printings
 43: 6336 printings
 44: 4598 printings
 45: 4039 printings
 46: 3000 printings
 47: 2971 printings
 48: 1488 printings
 49: 1488 printings
 50: 1180 printings
Total printings: 459556
Quality: 6568628.64

Genome SP:

New better solution at iteration 416836:
Genome:
(134 genes) 0.9849135082444008;0.13896357399738485;0.9711306112351855;0.9405182192841253;0.9098514052508284;0.27159294905637854;0.2861209725455631;0.7762063526381916;0.39584830679864463;0.47864741267412136;0.19014686082474536;0.2015133639699393;0.9130599589724512;0.37560617928276663;0.7424537679421602;0.9240211817018752;0.19234167776735955;0.913417861259507;0.1746490084176907;0.3595592011585242;0.2997653293349706;0.30044548104172275;0.3246447111297301;0.7898053214626394;0.3858423219719925;0.679153634099004;0.9129892193474098;0.28352222310662356;0.42256079399031754;0.39907563861564677;0.9204460159946555;0.2101548574446617;0.5597344447112114;0.8901994464073902;0.6187792571229015;0.10270365308278974;0.1921451280087823;0.7530124121523603;0.15225435981215307;0.5216578776640313;0.369272495278115;0.0;0.4586557276491217;0.5316284528709863;0.9282922580894843;0.2933973666744412;0.6642983714087289;0.14861598918987998;0.41037882194753844;0.35919374069191984;0.8643954766068667;0.46726517795537803;0.4750366443730885;0.6190441305570065;0.9373200467821811;0.9469632759032245;0.9296377084991051;0.10010537484186612;0.03893434299039149;0.5875085469326145;0.24337480734493377;0.177418269999856;0.06506529952596526;0.5115460237536755;0.6835885342846159;0.5630020178779553;0.5126522611450604;0.8990683209465279;0.8773659691658442;0.6737888718563209;0.4286017906200193;0.05695996794516746;0.9999999999999999;0.09028629642071871;0.9181558471498446;0.3070548100432879;0.41114213339064376;0.4112750548498309;0.2926858196091369;0.10534922720021825;0.5588610667570242;0.8483510124173546;0.9979852957431943;0.9633015368409996;0.41765597939581933;0.07612581053672493;0.013430060760957242;0.4596474389515596;0.9319254430433973;0.8067579319046042;0.27976383327411924;0.830788466493979;0.14703202616047895;0.1447450703285279;0.545871104112722;0.1496975964756191;0.5985791381044538;0.5380912875698337;0.5388120268822755;0.7433093889856816;0.4747592131491688;0.8287219541775476;0.7660202704882937;0.2346368069300217;0.24046223048246856;0.769861895427271;0.9167510843736355;0.4171020355504993;0.8410471812629161;0.8388978047937626;0.8382798037534641;0.15373357030988744;0.7681357200445076;0.8906517767410396;0.7573409724002228;0.952833234564781;0.0;0.39214355308144894;0.7495450591318522;0.11752308500659554;0.35582971039266353;0.631904561237492;0.0;0.7601235503027366;0.7647209034458218;0.35394170625384425;0.7088391350274977;0.7726271494144772;0.7860101557147067;0.8102578117369326;0.0;0.7594998832518058;0.5647335897112917;0.0
Intermediate:
(84 slots) 5:72300 | 3:72223 | 4:72214 | 6:70500 | 10:61700 | 0:61666 | 7:61214 | 11:60000 | 1:50923 | 13:50904 | 12:50887 | 16:50000 | 18:43000 | 2:42969 | 9:42670 | 2:42531 | 1:39077 | 14:39043 | 19:39000 | 20:38900 | 21:37000 | 8:36741 | 17:36601 | 22:36000 | 0:33334 | 23:33326 | 24:32700 | 8:30259 | 15:25504 | 15:25496 | 26:25489 | 9:24330 | 31:22400 | 28:22398 | 27:22369 | 25:22275 | 32:16076 | 35:16050 | 33:16002 | 30:15561 | 29:13184 | 29:13166 | 34:13059 | 14:13057 | 39:10000 | 40:10000 | 30:9939 | 37:9916 | 41:7800 | 7:7786 | 3:7777 | 25:7725 | 36:7003 | 36:6997 | 17:6899 | 12:6763 | 38:5945 | 34:5941 | 27:5931 | 28:5602 | 38:5055 | 33:4998 | 32:4924 | 4:4786 | 13:4596 | 26:4511 | 42:4510 | 43:4500 | 44:2006 | 45:2001 | 44:1994 | 37:1984 | 42:1490 | 46:1462 | 47:1450 | 46:1438 | 48:1000 | 45:999 | 23:974 | 49:750 | 39:0 | 43:0 | 48:0 | 49:0
Phenotype:
Offset plates:
|  4|  5|  6|  7|	 72300 printings
|  1|  8| 11| 12|	 61700 printings
|  2| 13| 14| 17|	 50923 printings
|  3|  3| 10| 19|	 43000 printings
|  2| 15| 20| 21|	 39077 printings
|  9| 18| 22| 23|	 37000 printings
|  1|  9| 24| 25|	 33334 printings
| 10| 16| 16| 27|	 25504 printings
| 26| 28| 29| 32|	 22400 printings
| 31| 33| 34| 36|	 16076 printings
| 15| 30| 30| 35|	 13184 printings
| 31| 38| 40| 41|	 10000 printings
|  4|  8| 26| 42|	  7800 printings
| 13| 18| 37| 37|	  7003 printings
| 28| 29| 35| 39|	  5945 printings
|  5| 33| 34| 39|	  5055 printings
| 14| 27| 43| 44|	  4596 printings
| 38| 45| 45| 46|	  2006 printings
| 43| 47| 47| 48|	  1490 printings
| 24| 46| 49| 50|	  1000 printings
| 40| 44| 49| 50|	     0 printings
Printings per book cover:
  1: 95034 printings
  2: 90000 printings
  3: 86000 printings
  4: 80100 printings
  5: 77355 printings
  6: 72300 printings
  7: 72300 printings
  8: 69500 printings
  9: 70334 printings
 10: 68504 printings
 11: 61700 printings
 12: 61700 printings
 13: 57926 printings
 14: 55519 printings
 15: 52261 printings
 16: 51008 printings
 17: 50923 printings
 18: 44003 printings
 19: 43000 printings
 20: 39077 printings
 21: 39077 printings
 22: 37000 printings
 23: 37000 printings
 24: 34334 printings
 25: 33334 printings
 26: 30200 printings
 27: 30100 printings
 28: 28345 printings
 29: 28345 printings
 30: 26368 printings
 31: 26076 printings
 32: 22400 printings
 33: 21131 printings
 34: 21131 printings
 35: 19129 printings
 36: 16076 printings
 37: 14006 printings
 38: 12006 printings
 39: 11000 printings
 40: 10000 printings
 41: 10000 printings
 42: 7800 printings
 43: 6086 printings
 44: 4596 printings
 45: 4012 printings
 46: 3006 printings
 47: 2980 printings
 48: 1490 printings
 49: 1000 printings
 50: 1000 printings
Total printings: 459393
Quality: 6566437.92



Experiment: 19 plates
10 runs of duration 40s
Overall best:
Encoded representation 1 (GenomeCf):
(52 keys) 0.35702424655643195 ; 0.20726076742948818 ; 0.24590552666346044 ; 0.9169870743117473 ; 0.06068523334455567 ; 0.19525327635158995 ; 0.3368588043175136 ; 0.6288716998083981 ; 0.41119091046441003 ; 0.8248517420313983 ; 0.8821754969995914 ; 0.4993491437270874 ; 0.045643445860064746 ; 0.7905130835527965 ; 0.06149661671270268 ; 0.5587475190990467 ; 0.4349585401057513 ; 0.8650878049128837 ; 0.036764655145104075 ; 0.6284023829499221 ; 0.7567985655196217 ; 0.24826860659291416 ; 0.8441924101825312 ; 0.5580540500400694 ; 0.22021949982136957 ; 0.9999233093639581 ; 0.12166169132886995 ; 0.11233046445583761 ; 0.2746997922903551 ; 0.9523161332323213 ; 0.09886450515402334 ; 0.9928537620098775 ; 0.7438450109767127 ; 0.14446570210729914 ; 0.7236156658222803 ; 0.4286277653706365 ; 0.37897970628854794 ; 0.9398020306671356 ; 0.4415442908738748 ; 0.09461427040674686 ; 0.25153970364267164 ; 0.7023309689664671 ; 0.2674873731970093 ; 0.5531700974468554 ; 0.11647832052623641 ; 0.29515105943675646 ; 0.1445437489027137 ; 0.21634587951797912 ; 0.009996720267477777 ; 0.5901482468685253 ; 0.4863981051136713 ; 0.6044461625384057
Encoded representation 2 (Slots):
 67000 copies /  67000 of book cover   9
 67000 copies /  67000 of book cover  10
 66968 copies /  95000 of book cover   1
 66541 copies /  70500 of book cover   7
 61722 copies /  90000 of book cover   2
 61700 copies /  61700 of book cover  11
 61631 copies /  72300 of book cover   6
 61537 copies /  69000 of book cover   8
 52100 copies /  52100 of book cover  15
 52023 copies /  80000 of book cover   4
 51706 copies /  85500 of book cover   3
 51000 copies /  51000 of book cover  16
 39000 copies /  39000 of book cover  20
 38993 copies /  43500 of book cover  18
 38776 copies /  77000 of book cover   5
 38224 copies /  77000 of book cover   5
 34300 copies /  34300 of book cover  24
 34297 copies /  36000 of book cover  23
 34279 copies /  50000 of book cover  17
 33794 copies /  85500 of book cover   3
 30003 copies /  60000 of book cover  12
 30000 copies /  30000 of book cover  26
 30000 copies /  30000 of book cover  27
 29997 copies /  60000 of book cover  12
 28300 copies /  28300 of book cover  28
 28278 copies /  90000 of book cover   2
 28032 copies /  95000 of book cover   1
 28000 copies /  28000 of book cover  29
 26432 copies /  57650 of book cover  13
 26426 copies /  55500 of book cover  14
 26350 copies /  26350 of book cover  30
 25500 copies /  25500 of book cover  31
 22857 copies /  38900 of book cover  21
 22818 copies /  32700 of book cover  25
 22795 copies /  43000 of book cover  19
 22400 copies /  22400 of book cover  32
 21033 copies /  55500 of book cover  14
 21000 copies /  21000 of book cover  33
 21000 copies /  21000 of book cover  34
 20996 copies /  37000 of book cover  22
 20256 copies /  57650 of book cover  13
 20205 copies /  43000 of book cover  19
 20167 copies /  80000 of book cover   4
 19000 copies /  19000 of book cover  35
 16050 copies /  16050 of book cover  36
 16043 copies /  38900 of book cover  21
 16004 copies /  37000 of book cover  22
 15721 copies /  50000 of book cover  17
 11000 copies /  14000 of book cover  37
 11000 copies /  11000 of book cover  39
 10962 copies /  57650 of book cover  13
 10669 copies /  72300 of book cover   6
 10000 copies /  10000 of book cover  40
 10000 copies /  10000 of book cover  41
  9882 copies /  32700 of book cover  25
  9671 copies /  11900 of book cover  38
  8041 copies /  55500 of book cover  14
  7810 copies /  80000 of book cover   4
  7800 copies /   7800 of book cover  42
  7463 copies /  69000 of book cover   8
  4507 copies /  43500 of book cover  18
  4500 copies /   4500 of book cover  44
  4326 copies /   6000 of book cover  43
  3959 copies /  70500 of book cover   7
  3002 copies /   4000 of book cover  45
  3000 copies /   3000 of book cover  46
  3000 copies /  14000 of book cover  37
  2900 copies /   2900 of book cover  47
  1703 copies /  36000 of book cover  23
  1674 copies /   6000 of book cover  43
  1477 copies /  11900 of book cover  38
  1450 copies /   1450 of book cover  48
  1000 copies /   1000 of book cover  49
   998 copies /   4000 of book cover  45
   752 copies /  11900 of book cover  38
   750 copies /    750 of book cover  50
Phenotype (CppSolution):
Demand fulfillment:
  1:  95300 /  95000 (waste: 0.315 %)
  2:  90022 /  90000 (waste: 0.024 %)
  3:  86400 /  85500 (waste: 1.042 %)
  4:  80397 /  80000 (waste: 0.494 %)
  5:  78000 /  77000 (waste: 1.282 %)
  6:  72722 /  72300 (waste: 0.580 %)
  7:  71507 /  70500 (waste: 1.408 %)
  8:  69763 /  69000 (waste: 1.094 %)
  9:  67000 /  67000 (waste: 0.000 %)
 10:  67000 /  67000 (waste: 0.000 %)
 11:  61722 /  61700 (waste: 0.036 %)
 12:  60006 /  60000 (waste: 0.010 %)
 13:  57688 /  57650 (waste: 0.066 %)
 14:  55506 /  55500 (waste: 0.011 %)
 15:  52100 /  52100 (waste: 0.000 %)
 16:  52100 /  51000 (waste: 2.111 %)
 17:  50350 /  50000 (waste: 0.695 %)
 18:  43507 /  43500 (waste: 0.016 %)
 19:  43113 /  43000 (waste: 0.262 %)
 20:  39000 /  39000 (waste: 0.000 %)
 21:  38907 /  38900 (waste: 0.018 %)
 22:  37083 /  37000 (waste: 0.224 %)
 23:  36003 /  36000 (waste: 0.008 %)
 24:  34300 /  34300 (waste: 0.000 %)
 25:  32857 /  32700 (waste: 0.478 %)
 26:  30003 /  30000 (waste: 0.010 %)
 27:  30003 /  30000 (waste: 0.010 %)
 28:  28300 /  28300 (waste: 0.000 %)
 29:  28300 /  28000 (waste: 1.060 %)
 30:  26432 /  26350 (waste: 0.310 %)
 31:  26432 /  25500 (waste: 3.526 %)
 32:  22857 /  22400 (waste: 1.999 %)
 33:  21033 /  21000 (waste: 0.157 %)
 34:  21033 /  21000 (waste: 0.157 %)
 35:  20256 /  19000 (waste: 6.201 %)
 36:  16050 /  16050 (waste: 0.000 %)
 37:  14002 /  14000 (waste: 0.014 %)
 38:  12703 /  11900 (waste: 6.321 %)
 39:  11000 /  11000 (waste: 0.000 %)
 40:  10000 /  10000 (waste: 0.000 %)
 41:  10000 /  10000 (waste: 0.000 %)
 42:   8041 /   7800 (waste: 2.997 %)
 43:   6210 /   6000 (waste: 3.382 %)
 44:   4507 /   4500 (waste: 0.155 %)
 45:   4002 /   4000 (waste: 0.050 %)
 46:   3002 /   3000 (waste: 0.067 %)
 47:   3002 /   2900 (waste: 3.398 %)
 48:   1703 /   1450 (waste: 14.856 %)
 49:   1000 /   1000 (waste: 0.000 %)
 50:   1000 /    750 (waste: 25.000 %)
Plates configuration:
|   1 |   7 |   9 |  10 | :  67000 printings
|   2 |   6 |   8 |  11 | :  61722 printings
|   3 |   4 |  15 |  16 | :  52100 printings
|   5 |   5 |  18 |  20 | :  39000 printings
|   3 |  17 |  23 |  24 | :  34300 printings
|  12 |  12 |  26 |  27 | :  30003 printings
|   1 |   2 |  28 |  29 | :  28300 printings
|  13 |  14 |  30 |  31 | :  26432 printings
|  19 |  21 |  25 |  32 | :  22857 printings
|  14 |  22 |  33 |  34 | :  21033 printings
|   4 |  13 |  19 |  35 | :  20256 printings
|  17 |  21 |  22 |  36 | :  16050 printings
|   6 |  13 |  37 |  39 | :  11000 printings
|  25 |  38 |  40 |  41 | :  10000 printings
|   4 |   8 |  14 |  42 | :   8041 printings
|   7 |  18 |  43 |  44 | :   4507 printings
|  37 |  45 |  46 |  47 | :   3002 printings
|  23 |  38 |  43 |  48 | :   1703 printings
|  38 |  45 |  49 |  50 | :   1000 printings
Feasible solution: true
Total printings: 458306
Total waste: 0.6409 %
Quality: 6514476.64
Best qualities:
6514476.64 6521035.359999999 6523777.12 6524973.279999999 6526868.319999999 6533413.6 6534085.6 6539085.279999999 6546477.279999999 6555616.4799999995
Average quality: 6531980.896000
Median quality: 6530140.960000




Experiment: I015 with 18 plates
12 runs of duration 1m 10s
Overall best:
Encoded representation 1 (GenomeCf):
(44 keys) 0.07753221156533407 ; 0.06579407903410384 ; 0.5833162828413343 ; 0.2645048893753491 ; 0.5660647612935145 ; 0.8761312415578592 ; 0.026835418191324067 ; 0.27738907426803594 ; 0.11928127543802358 ; 0.15867932664778306 ; 0.6652009289290916 ; 0.9509281866663821 ; 0.5489120296248747 ; 0.8722961638139444 ; 0.045622965067854016 ; 0.188507801232767 ; 0.6802024675228567 ; 0.8369573979301619 ; 0.13797562813369846 ; 0.10074002161613771 ; 0.15317277193659085 ; 0.3187210799663891 ; 0.6101300325576744 ; 0.7634785662636328 ; 0.35435992795037285 ; 0.20713419908398845 ; 0.9463362811722325 ; 0.8877190601709667 ; 0.48419967047106016 ; 0.16601051415777657 ; 0.01818913218499374 ; 0.7790286037716657 ; 0.7252655813105171 ; 0.8545931402405963 ; 0.37767678437149454 ; 0.27928347499496886 ; 0.23373130096263683 ; 0.07687607223642434 ; 0.2748571867303694 ; 0.12305332152556214 ; 0.20883157148474984 ; 0.7419456719302153 ; 0.4664516689282949 ; 0.25833841303273286
Encoded representation 2 (Slots):
 77518 copies /  90000 of book cover   2
 77442 copies /  85500 of book cover   3
 77369 copies /  80000 of book cover   4
 77000 copies /  77000 of book cover   5
 67000 copies /  67000 of book cover   9
 67000 copies /  67000 of book cover  10
 66949 copies /  70500 of book cover   7
 66564 copies /  72300 of book cover   6
 58005 copies /  69000 of book cover   8
 57997 copies /  95000 of book cover   1
 57694 copies /  60000 of book cover  12
 57650 copies /  57650 of book cover  13
 52100 copies /  52100 of book cover  15
 52086 copies /  55500 of book cover  14
 51000 copies /  51000 of book cover  16
 50000 copies /  50000 of book cover  17
 39000 copies /  39000 of book cover  20
 38995 copies /  43500 of book cover  18
 38900 copies /  38900 of book cover  21
 38811 copies /  61700 of book cover  11
 37003 copies /  95000 of book cover   1
 37000 copies /  37000 of book cover  22
 36996 copies /  43000 of book cover  19
 36000 copies /  36000 of book cover  23
 30000 copies /  30000 of book cover  26
 30000 copies /  30000 of book cover  27
 29986 copies /  32700 of book cover  25
 29870 copies /  34300 of book cover  24
 22889 copies /  61700 of book cover  11
 22866 copies /  26350 of book cover  30
 22400 copies /  22400 of book cover  32
 21000 copies /  21000 of book cover  33
 16050 copies /  16050 of book cover  36
 15958 copies /  28300 of book cover  28
 15766 copies /  25500 of book cover  31
 15735 copies /  28000 of book cover  29
 12482 copies /  90000 of book cover   2
 12342 copies /  28300 of book cover  28
 12265 copies /  28000 of book cover  29
 11900 copies /  11900 of book cover  38
 11049 copies /  19000 of book cover  35
 11016 copies /  21000 of book cover  34
 11000 copies /  11000 of book cover  39
 10995 copies /  69000 of book cover   8
 10000 copies /  10000 of book cover  40
 10000 copies /  10000 of book cover  41
  9984 copies /  21000 of book cover  34
  9734 copies /  25500 of book cover  31
  8058 copies /  85500 of book cover   3
  8018 copies /  14000 of book cover  37
  7951 copies /  19000 of book cover  35
  7800 copies /   7800 of book cover  42
  6004 copies /  43000 of book cover  19
  6000 copies /   6000 of book cover  43
  5982 copies /  14000 of book cover  37
  5736 copies /  72300 of book cover   6
  4505 copies /  43500 of book cover  18
  4500 copies /   4500 of book cover  44
  4430 copies /  34300 of book cover  24
  4000 copies /   4000 of book cover  45
  3551 copies /  70500 of book cover   7
  3484 copies /  26350 of book cover  30
  3414 copies /  55500 of book cover  14
  3000 copies /   3000 of book cover  46
  2900 copies /   2900 of book cover  47
  2714 copies /  32700 of book cover  25
  2631 copies /  80000 of book cover   4
  2306 copies /  60000 of book cover  12
  1000 copies /   1000 of book cover  49
   807 copies /   1450 of book cover  48
   750 copies /    750 of book cover  50
   643 copies /   1450 of book cover  48
Phenotype (CppSolution):
Demand fulfillment:
  1:  95008 /  95000 (waste: 0.008 %)
  2:  90000 /  90000 (waste: 0.000 %)
  3:  85576 /  85500 (waste: 0.089 %)
  4:  80418 /  80000 (waste: 0.520 %)
  5:  77518 /  77000 (waste: 0.668 %)
  6:  73004 /  72300 (waste: 0.964 %)
  7:  70551 /  70500 (waste: 0.072 %)
  8:  69054 /  69000 (waste: 0.078 %)
  9:  67000 /  67000 (waste: 0.000 %)
 10:  67000 /  67000 (waste: 0.000 %)
 11:  61889 /  61700 (waste: 0.305 %)
 12:  60905 /  60000 (waste: 1.486 %)
 13:  58005 /  57650 (waste: 0.612 %)
 14:  55651 /  55500 (waste: 0.271 %)
 15:  52100 /  52100 (waste: 0.000 %)
 16:  52100 /  51000 (waste: 2.111 %)
 17:  52100 /  50000 (waste: 4.031 %)
 18:  43505 /  43500 (waste: 0.011 %)
 19:  43007 /  43000 (waste: 0.016 %)
 20:  39000 /  39000 (waste: 0.000 %)
 21:  39000 /  38900 (waste: 0.256 %)
 22:  37003 /  37000 (waste: 0.008 %)
 23:  37003 /  36000 (waste: 2.711 %)
 24:  34505 /  34300 (waste: 0.594 %)
 25:  32900 /  32700 (waste: 0.608 %)
 26:  30000 /  30000 (waste: 0.000 %)
 27:  30000 /  30000 (waste: 0.000 %)
 28:  28532 /  28300 (waste: 0.813 %)
 29:  28532 /  28000 (waste: 1.865 %)
 30:  26440 /  26350 (waste: 0.340 %)
 31:  26050 /  25500 (waste: 2.111 %)
 32:  22889 /  22400 (waste: 2.136 %)
 33:  22889 /  21000 (waste: 8.253 %)
 34:  21049 /  21000 (waste: 0.233 %)
 35:  19107 /  19000 (waste: 0.560 %)
 36:  16050 /  16050 (waste: 0.000 %)
 37:  14062 /  14000 (waste: 0.441 %)
 38:  12482 /  11900 (waste: 4.663 %)
 39:  11049 /  11000 (waste: 0.443 %)
 40:  10000 /  10000 (waste: 0.000 %)
 41:  10000 /  10000 (waste: 0.000 %)
 42:   8058 /   7800 (waste: 3.202 %)
 43:   6004 /   6000 (waste: 0.067 %)
 44:   4505 /   4500 (waste: 0.111 %)
 45:   4505 /   4000 (waste: 11.210 %)
 46:   3551 /   3000 (waste: 15.517 %)
 47:   2900 /   2900 (waste: 0.000 %)
 48:   2000 /   1450 (waste: 27.500 %)
 49:   1000 /   1000 (waste: 0.000 %)
 50:   1000 /    750 (waste: 25.000 %)
Plates configuration:
|   2 |   3 |   4 |   5 | :  77518 printings
|   6 |   7 |   9 |  10 | :  67000 printings
|   1 |   8 |  12 |  13 | :  58005 printings
|  14 |  15 |  16 |  17 | :  52100 printings
|  11 |  18 |  20 |  21 | :  39000 printings
|   1 |  19 |  22 |  23 | :  37003 printings
|  24 |  25 |  26 |  27 | :  30000 printings
|  11 |  30 |  32 |  33 | :  22889 printings
|  28 |  29 |  31 |  36 | :  16050 printings
|   2 |  28 |  29 |  38 | :  12482 printings
|   8 |  34 |  35 |  39 | :  11049 printings
|  31 |  34 |  40 |  41 | :  10000 printings
|   3 |  35 |  37 |  42 | :   8058 printings
|   6 |  19 |  37 |  43 | :   6004 printings
|  18 |  24 |  44 |  45 | :   4505 printings
|   7 |  14 |  30 |  46 | :   3551 printings
|   4 |  12 |  25 |  47 | :   2900 printings
|  48 |  48 |  49 |  50 | :   1000 printings
Feasible solution: true
Total printings: 459114
Total waste: 0.8183 %
Quality: 6506660.16
Best qualities:
6506660.16 6508555.2 6508729.92 6517896.0 6520570.56 6526927.68 6527478.72 6527949.12 6533177.279999999 6542773.4399999995 6543432.0 6543983.04
Average quality: 6525677.760000
Median quality: 6527203.200000

Process finished with exit code 0




Experiment: I015 with 19 plates
20 runs of duration 1m 40s
Overall best:
Encoded representation 1 (GenomeCf):
(52 keys) 0.009539437117744298 ; 0.7461435967656151 ; 0.4276414184727326 ; 0.7709378397016613 ; 0.0746727442775098 ; 0.27165492572858585 ; 0.09217466434294685 ; 0.20244411012462993 ; 0.6110510039589272 ; 0.8664294981626655 ; 0.757386895396458 ; 0.7557396271102805 ; 0.25932343033576943 ; 0.23013915957585496 ; 0.2795209031379906 ; 0.7086722209920472 ; 0.4899368766902895 ; 0.6081721112905619 ; 0.28077212425042775 ; 0.039311990869071445 ; 0.338644638500631 ; 0.2628930651469733 ; 0.4667959782755965 ; 0.2630564374458061 ; 0.16006179202516602 ; 0.22029123051112598 ; 0.5411050557511805 ; 0.09773286732152864 ; 0.059214287889941986 ; 0.4566095863237346 ; 0.040272052325129426 ; 0.9091139692719452 ; 0.6515250845818092 ; 0.9551982417168977 ; 0.5659205604256871 ; 0.07951348399313352 ; 0.2191838423538941 ; 0.7375477373676483 ; 0.6652099734941551 ; 0.13621577791881334 ; 0.7036355482333921 ; 0.2369438589622639 ; 0.18058078945683165 ; 0.23006303999127053 ; 0.10445862920198667 ; 0.08451482486030848 ; 0.12947215057757944 ; 0.7652064885946451 ; 0.020523269868899185 ; 0.8664816109170707 ; 0.7568339973880164 ; 0.19806561870909944
Encoded representation 2 (Slots):
 69245 copies /  72300 of book cover   6
 69206 copies /  77000 of book cover   5
 69134 copies /  80000 of book cover   4
 69000 copies /  69000 of book cover   8
 60000 copies /  60000 of book cover  12
 59621 copies /  67000 of book cover   9
 59559 copies /  95000 of book cover   1
 59293 copies /  67000 of book cover  10
 51076 copies /  52100 of book cover  15
 51017 copies /  57650 of book cover  13
 51009 copies /  90000 of book cover   2
 51000 copies /  51000 of book cover  16
 43527 copies /  70500 of book cover   7
 43500 copies /  43500 of book cover  18
 43428 copies /  50000 of book cover  17
 43000 copies /  43000 of book cover  19
 39000 copies /  39000 of book cover  20
 38991 copies /  90000 of book cover   2
 38947 copies /  61700 of book cover  11
 38900 copies /  38900 of book cover  21
 36000 copies /  36000 of book cover  23
 35989 copies /  85500 of book cover   3
 35835 copies /  55500 of book cover  14
 35441 copies /  95000 of book cover   1
 30000 copies /  30000 of book cover  26
 30000 copies /  30000 of book cover  27
 29991 copies /  85500 of book cover   3
 29789 copies /  34300 of book cover  24
 26973 copies /  70500 of book cover   7
 26918 copies /  28300 of book cover  28
 26887 copies /  28000 of book cover  29
 26350 copies /  26350 of book cover  30
 22757 copies /  32700 of book cover  25
 22753 copies /  61700 of book cover  11
 22738 copies /  37000 of book cover  22
 22400 copies /  22400 of book cover  32
 19665 copies /  55500 of book cover  14
 19570 copies /  21000 of book cover  34
 19520 copies /  85500 of book cover   3
 19000 copies /  19000 of book cover  35
 14454 copies /  25500 of book cover  31
 14262 copies /  37000 of book cover  22
 14149 copies /  16050 of book cover  36
 14000 copies /  14000 of book cover  37
 11046 copies /  25500 of book cover  31
 11000 copies /  11000 of book cover  39
 10971 copies /  21000 of book cover  33
 10866 copies /  80000 of book cover   4
 10029 copies /  21000 of book cover  33
 10000 copies /  10000 of book cover  40
 10000 copies /  10000 of book cover  41
  9943 copies /  32700 of book cover  25
  7800 copies /   7800 of book cover  42
  7794 copies /  77000 of book cover   5
  7707 copies /  67000 of book cover  10
  7379 copies /  67000 of book cover   9
  6671 copies /  11900 of book cover  38
  6633 copies /  57650 of book cover  13
  6572 copies /  50000 of book cover  17
  6000 copies /   6000 of book cover  43
  4511 copies /  34300 of book cover  24
  4500 copies /   4500 of book cover  44
  4496 copies /  11900 of book cover  38
  4000 copies /   4000 of book cover  45
  3055 copies /  72300 of book cover   6
  3000 copies /   3000 of book cover  46
  2900 copies /   2900 of book cover  47
  1901 copies /  16050 of book cover  36
  1450 copies /   1450 of book cover  48
  1430 copies /  21000 of book cover  34
  1382 copies /  28300 of book cover  28
  1113 copies /  28000 of book cover  29
  1024 copies /  52100 of book cover  15
  1000 copies /   1000 of book cover  49
   750 copies /    750 of book cover  50
   733 copies /  11900 of book cover  38
Phenotype (CppSolution):
Demand fulfillment:
  1:  96000 /  95000 (waste: 1.042 %)
  2:  90076 /  90000 (waste: 0.084 %)
  3:  85665 /  85500 (waste: 0.193 %)
  4:  80291 /  80000 (waste: 0.362 %)
  5:  77045 /  77000 (waste: 0.058 %)
  6:  72300 /  72300 (waste: 0.000 %)
  7:  70500 /  70500 (waste: 0.000 %)
  8:  69245 /  69000 (waste: 0.354 %)
  9:  67800 /  67000 (waste: 1.180 %)
 10:  67800 /  67000 (waste: 1.180 %)
 11:  61757 /  61700 (waste: 0.092 %)
 12:  60000 /  60000 (waste: 0.000 %)
 13:  57747 /  57650 (waste: 0.168 %)
 14:  55665 /  55500 (waste: 0.296 %)
 15:  52100 /  52100 (waste: 0.000 %)
 16:  51076 /  51000 (waste: 0.149 %)
 17:  50198 /  50000 (waste: 0.394 %)
 18:  43527 /  43500 (waste: 0.062 %)
 19:  43527 /  43000 (waste: 1.211 %)
 20:  39000 /  39000 (waste: 0.000 %)
 21:  39000 /  38900 (waste: 0.256 %)
 22:  37211 /  37000 (waste: 0.567 %)
 23:  36000 /  36000 (waste: 0.000 %)
 24:  34511 /  34300 (waste: 0.611 %)
 25:  32786 /  32700 (waste: 0.262 %)
 26:  30000 /  30000 (waste: 0.000 %)
 27:  30000 /  30000 (waste: 0.000 %)
 28:  28423 /  28300 (waste: 0.433 %)
 29:  28423 /  28000 (waste: 1.488 %)
 30:  26973 /  26350 (waste: 2.310 %)
 31:  25500 /  25500 (waste: 0.000 %)
 32:  22757 /  22400 (waste: 1.569 %)
 33:  21075 /  21000 (waste: 0.356 %)
 34:  21115 /  21000 (waste: 0.545 %)
 35:  19665 /  19000 (waste: 3.382 %)
 36:  17509 /  16050 (waste: 8.333 %)
 37:  14454 /  14000 (waste: 3.141 %)
 38:  12206 /  11900 (waste: 2.507 %)
 39:  11046 /  11000 (waste: 0.416 %)
 40:  10029 /  10000 (waste: 0.289 %)
 41:  10029 /  10000 (waste: 0.289 %)
 42:   7800 /   7800 (waste: 0.000 %)
 43:   6671 /   6000 (waste: 10.058 %)
 44:   4511 /   4500 (waste: 0.244 %)
 45:   4511 /   4000 (waste: 11.328 %)
 46:   3055 /   3000 (waste: 1.800 %)
 47:   3055 /   2900 (waste: 5.074 %)
 48:   1450 /   1450 (waste: 0.000 %)
 49:   1024 /   1000 (waste: 2.344 %)
 50:   1024 /    750 (waste: 26.758 %)
Plates configuration:
|   4 |   5 |   6 |   8 | :  69245 printings
|   1 |   9 |  10 |  12 | :  60000 printings
|   2 |  13 |  15 |  16 | :  51076 printings
|   7 |  17 |  18 |  19 | :  43527 printings
|   2 |  11 |  20 |  21 | :  39000 printings
|   1 |   3 |  14 |  23 | :  36000 printings
|   3 |  24 |  26 |  27 | :  30000 printings
|   7 |  28 |  29 |  30 | :  26973 printings
|  11 |  22 |  25 |  32 | :  22757 printings
|   3 |  14 |  34 |  35 | :  19665 printings
|  22 |  31 |  36 |  37 | :  14454 printings
|   4 |  31 |  33 |  39 | :  11046 printings
|  25 |  33 |  40 |  41 | :  10029 printings
|   5 |   9 |  10 |  42 | :   7800 printings
|  13 |  17 |  38 |  43 | :   6671 printings
|  24 |  38 |  44 |  45 | :   4511 printings
|   6 |  36 |  46 |  47 | :   3055 printings
|  28 |  29 |  34 |  48 | :   1450 printings
|  15 |  38 |  49 |  50 | :   1024 printings
Feasible solution: true
Total printings: 458283
Total waste: 0.6358 %
Quality: 6514167.52
Best qualities:
6514167.52 6517500.64 6520390.24 6522540.64 6526303.84 6526438.24 6526572.64 6529314.399999999 6530765.92 6535093.6 6535133.92 6536168.8 6536195.68 6546020.319999999 6565615.84 6569298.399999999 6570387.04 6578343.52 6610223.2 6627964.0
Average quality: 6546221.920000
Median quality: 6535113.760000



#######################################################

Experiment: I015 with 19 plates
20 runs of duration 5m
Overall best:
Encoded representation 1 (GenomeCf):
(52 keys) 0.5592288597372592 ; 0.7073850099646698 ; 0.4947378262712875 ; 0.7173502394924416 ; 0.6980007273162174 ; 0.07423256904669784 ; 0.29824380522488725 ; 0.6158461678906537 ; 0.7268334325190611 ; 0.9041562046948878 ; 0.015592407253300244 ; 0.7581985821732142 ; 0.7698624510161741 ; 0.8418191193373776 ; 0.21463156605318934 ; 0.8307448208789534 ; 0.18340579962547232 ; 0.23702680874973425 ; 0.1457433518018144 ; 0.5280327743812758 ; 0.47158157719430227 ; 0.265482931820593 ; 0.0219798697630873 ; 0.8667847628860458 ; 0.2395399344515139 ; 0.03142306975318265 ; 0.9525680984125103 ; 0.9991428647692131 ; 0.27164765600131147 ; 0.42916388506970193 ; 0.5887269854619859 ; 0.05626625233010252 ; 0.6260381473995695 ; 0.5687922640527765 ; 0.8908108851781263 ; 0.5113887009225427 ; 0.07263529855225226 ; 0.19496709161410886 ; 0.4390013921173167 ; 0.6343972209166613 ; 0.08221569094225867 ; 0.12128152963791561 ; 0.15361193613771573 ; 0.8215684992141881 ; 0.046044318616265234 ; 0.06966608834577848 ; 0.0407872036338085 ; 0.9444370360281533 ; 0.16295359101269857 ; 0.4780237815364452 ; 0.5667552063197511 ; 0.7118327641819234
Encoded representation 2 (Slots):
 72331 copies /  77000 of book cover   5
 72300 copies /  72300 of book cover   6
 72202 copies /  80000 of book cover   4
 70500 copies /  70500 of book cover   7
 59060 copies /  67000 of book cover  10
 59058 copies /  60000 of book cover  12
 58986 copies /  95000 of book cover   1
 57650 copies /  57650 of book cover  13
 51000 copies /  51000 of book cover  16
 50995 copies /  90000 of book cover   2
 50987 copies /  67000 of book cover   9
 50000 copies /  50000 of book cover  17
 43591 copies /  55500 of book cover  14
 43554 copies /  85500 of book cover   3
 43500 copies /  43500 of book cover  18
 43000 copies /  43000 of book cover  19
 39005 copies /  90000 of book cover   2
 39000 copies /  39000 of book cover  20
 38968 copies /  85500 of book cover   3
 38900 copies /  38900 of book cover  21
 36072 copies /  61700 of book cover  11
 36058 copies /  52100 of book cover  15
 36014 copies /  95000 of book cover   1
 36000 copies /  36000 of book cover  23
 30000 copies /  30000 of book cover  26
 30000 copies /  30000 of book cover  27
 29923 copies /  69000 of book cover   8
 29747 copies /  34300 of book cover  24
 25628 copies /  61700 of book cover  11
 25609 copies /  26350 of book cover  30
 25500 copies /  25500 of book cover  31
 25264 copies /  37000 of book cover  22
 21000 copies /  21000 of book cover  33
 21000 copies /  21000 of book cover  34
 20972 copies /  32700 of book cover  25
 20860 copies /  69000 of book cover   8
 18295 copies /  19000 of book cover  35
 18291 copies /  28300 of book cover  28
 18217 copies /  69000 of book cover   8
 18035 copies /  28000 of book cover  29
 16050 copies /  16050 of book cover  36
 16042 copies /  52100 of book cover  15
 16030 copies /  22400 of book cover  32
 16013 copies /  67000 of book cover   9
 11909 copies /  55500 of book cover  14
 11900 copies /  11900 of book cover  38
 11736 copies /  37000 of book cover  22
 11728 copies /  32700 of book cover  25
 10009 copies /  28300 of book cover  28
 10000 copies /  10000 of book cover  40
 10000 copies /  10000 of book cover  41
  9965 copies /  28000 of book cover  29
  7940 copies /  67000 of book cover  10
  7800 copies /   7800 of book cover  42
  7798 copies /  80000 of book cover   4
  7671 copies /  14000 of book cover  37
  6370 copies /  11000 of book cover  39
  6370 copies /  22400 of book cover  32
  6329 copies /  14000 of book cover  37
  6000 copies /   6000 of book cover  43
  4669 copies /  77000 of book cover   5
  4630 copies /  11000 of book cover  39
  4553 copies /  34300 of book cover  24
  4500 copies /   4500 of book cover  44
  3000 copies /   3000 of book cover  46
  2978 copies /   4000 of book cover  45
  2978 copies /  85500 of book cover   3
  2900 copies /   2900 of book cover  47
  1022 copies /   4000 of book cover  45
  1000 copies /   1000 of book cover  49
   942 copies /  60000 of book cover  12
   750 copies /    750 of book cover  50
   741 copies /  26350 of book cover  30
   726 copies /   1450 of book cover  48
   724 copies /   1450 of book cover  48
   705 copies /  19000 of book cover  35
Phenotype (CppSolution):
Demand fulfillment:
  1:  95132 /  95000 (  132 extra)
  2:  90005 /  90000 (    5 extra)
  3:  85596 /  85500 (   96 extra)
  4:  80271 /  80000 (  271 extra)
  5:  77000 /  77000 (    0 extra)
  6:  72331 /  72300 (   31 extra)
  7:  72331 /  70500 ( 1831 extra)
  8:  69295 /  69000 (  295 extra)
  9:  67050 /  67000 (   50 extra)
 10:  67000 /  67000 (    0 extra)
 11:  61700 /  61700 (    0 extra)
 12:  60082 /  60000 (   82 extra)
 13:  59060 /  57650 ( 1410 extra)
 14:  55500 /  55500 (    0 extra)
 15:  52122 /  52100 (   22 extra)
 16:  51000 /  51000 (    0 extra)
 17:  51000 /  50000 ( 1000 extra)
 18:  43591 /  43500 (   91 extra)
 19:  43591 /  43000 (  591 extra)
 20:  39005 /  39000 (    5 extra)
 21:  39005 /  38900 (  105 extra)
 22:  37537 /  37000 (  537 extra)
 23:  36072 /  36000 (   72 extra)
 24:  34669 /  34300 (  369 extra)
 25:  32909 /  32700 (  209 extra)
 26:  30000 /  30000 (    0 extra)
 27:  30000 /  30000 (    0 extra)
 28:  28304 /  28300 (    4 extra)
 29:  28304 /  28000 (  304 extra)
 30:  26369 /  26350 (   19 extra)
 31:  25628 /  25500 (  128 extra)
 32:  22420 /  22400 (   20 extra)
 33:  21000 /  21000 (    0 extra)
 34:  21000 /  21000 (    0 extra)
 35:  19036 /  19000 (   36 extra)
 36:  16050 /  16050 (    0 extra)
 37:  14310 /  14000 (  310 extra)
 38:  11909 /  11900 (    9 extra)
 39:  11039 /  11000 (   39 extra)
 40:  10009 /  10000 (    9 extra)
 41:  10009 /  10000 (    9 extra)
 42:   7940 /   7800 (  140 extra)
 43:   6370 /   6000 (  370 extra)
 44:   4669 /   4500 (  169 extra)
 45:   4022 /   4000 (   22 extra)
 46:   3000 /   3000 (    0 extra)
 47:   3000 /   2900 (  100 extra)
 48:   1482 /   1450 (   32 extra)
 49:   1022 /   1000 (   22 extra)
 50:   1022 /    750 (  272 extra)
Plates configuration:
|   4 |   5 |   6 |   7 | :  72331 printings
|   1 |  10 |  12 |  13 | :  59060 printings
|   2 |   9 |  16 |  17 | :  51000 printings
|   3 |  14 |  18 |  19 | :  43591 printings
|   2 |   3 |  20 |  21 | :  39005 printings
|   1 |  11 |  15 |  23 | :  36072 printings
|   8 |  24 |  26 |  27 | :  30000 printings
|  11 |  22 |  30 |  31 | :  25628 printings
|   8 |  25 |  33 |  34 | :  21000 printings
|   8 |  28 |  29 |  35 | :  18295 printings
|   9 |  15 |  32 |  36 | :  16050 printings
|  14 |  22 |  25 |  38 | :  11909 printings
|  28 |  29 |  40 |  41 | :  10009 printings
|   4 |  10 |  37 |  42 | :   7940 printings
|  32 |  37 |  39 |  43 | :   6370 printings
|   5 |  24 |  39 |  44 | :   4669 printings
|   3 |  45 |  46 |  47 | :   3000 printings
|  12 |  45 |  49 |  50 | :   1022 printings
|  30 |  35 |  48 |  48 | :    741 printings
Feasible solution: true
Total printings: 457692
Total waste: 0.5035 %
Quality: 6506224.4799999995
Best qualities:
6506224.4799999995 6511291.359999999 6519073.12 6522554.08 6522728.8 6524892.64 6526075.359999999 6527284.96 6529126.24 6531209.4399999995 6532768.4799999995 6535523.68 6537324.64 6539515.359999999 6540577.12 6557377.12 6558022.24 6563277.279999999 6648796.0 6673256.8
Average quality: 6545344.960000
Median quality: 6531988.960000





Encoded representation 1 (GenomePpc):
(102 keys) 0.03159096645423165 ; 0.5608416854596479 ; 0.37443189509654606 ; 0.056770449697072234 ; 0.2778851891530224 ; 0.5870245223923806 ; 0.691897924970881 ; 0.9287368143788672 ; 0.45093823408397693 ; 0.9274489029542963 ; 0.5470377039958402 ; 0.36092653078153536 ; 0.058889114370859974 ; 0.5096022073430027 ; 0.9730657085803618 ; 0.7989709265874624 ; 0.17482667583976197 ; 0.6930138585256532 ; 0.7340236382792479 ; 0.8007234763053032 ; 0.19275080487539598 ; 0.9496229382157517 ; 0.3214490740787552 ; 0.610331972869402 ; 0.9002156458798324 ; 0.8637125627454059 ; 0.9873480960875218 ; 0.8908792118894377 ; 0.042335416684918914 ; 0.5927459435145066 ; 0.16921934248879433 ; 0.10819543033424661 ; 0.8411848162382193 ; 0.020969089769145577 ; 0.6748184844758529 ; 0.45973691816022033 ; 0.6513678141574271 ; 0.45443950858888127 ; 0.5411430235180844 ; 0.0032968625614183678 ; 0.0833541098175885 ; 0.3493485286275825 ; 0.8885464525735918 ; 0.810270045635231 ; 0.5549221256399677 ; 0.8431528952532409 ; 0.6589682330553047 ; 0.19186549931759744 ; 0.9153633766330611 ; 0.358817600813218 ; 0.40809785204292026 ; 0.597023915133677 ; 0.26715195792035373 ; 0.39885827854258327 ; 0.9276912747502453 ; 0.6872546539285166 ; 0.039450035863664246 ; 0.14871782884543605 ; 0.6109517530234888 ; 0.6218619583536789 ; 0.025616538237271613 ; 0.05843317506105605 ; 0.8950941822650536 ; 0.27795585751957963 ; 0.9135699394580294 ; 0.9670660820649783 ; 0.842782644216154 ; 0.11499548483488742 ; 0.23938897091356803 ; 0.16317259630827985 ; 0.24903908838994215 ; 0.8971193473356152 ; 0.04132279911793113 ; 0.7397339989140951 ; 0.6776294267819675 ; 0.13912128475799312 ; 0.6891307723241941 ; 0.49162164915727025 ; 0.2830342798942467 ; 0.6043994937797081 ; 0.38081726289093987 ; 0.6364943203734555 ; 0.7685785659851175 ; 0.026823320666130468 ; 0.41947277751859013 ; 0.3862724560397508 ; 0.9283721229321821 ; 0.20348175244811362 ; 0.10143645930856804 ; 0.90814838492289 ; 0.16645867240329482 ; 0.011394973534733177 ; 0.6112241978332639 ; 0.6384575441144356 ; 0.9049020245225392 ; 0.4887391054561756 ; 0.6091208634421239 ; 0.7210913148535301 ; 0.303485228868999 ; 0.46123788020800605 ; 0.1994948866562043 ; 0.564598709039779
Encoded representation 2 (Slots):
 80025 copies /  85500 of book cover   3
 80000 copies /  80000 of book cover   4
 79847 copies /  95000 of book cover   1
 77000 copies /  77000 of book cover   5
 67000 copies /  67000 of book cover  10
 66189 copies /  69000 of book cover   8
 60000 copies /  60000 of book cover  12
 57650 copies /  57650 of book cover  13
 52100 copies /  52100 of book cover  15
 52032 copies /  90000 of book cover   2
 51000 copies /  51000 of book cover  16
 50000 copies /  50000 of book cover  17
 43766 copies /  67000 of book cover   9
 43500 copies /  43500 of book cover  18
 43000 copies /  43000 of book cover  19
 42616 copies /  72300 of book cover   6
 38900 copies /  38900 of book cover  21
 38823 copies /  61700 of book cover  11
 37968 copies /  90000 of book cover   2
 37000 copies /  37000 of book cover  22
 36000 copies /  36000 of book cover  23
 35617 copies /  70500 of book cover   7
 35365 copies /  55500 of book cover  14
 34883 copies /  70500 of book cover   7
 30000 copies /  30000 of book cover  26
 30000 copies /  30000 of book cover  27
 29684 copies /  72300 of book cover   6
 28300 copies /  28300 of book cover  28
 23234 copies /  67000 of book cover   9
 23098 copies /  28000 of book cover  29
 22909 copies /  34300 of book cover  24
 22877 copies /  61700 of book cover  11
 21000 copies /  21000 of book cover  33
 21000 copies /  21000 of book cover  34
 20996 copies /  39000 of book cover  20
 20135 copies /  55500 of book cover  14
 16050 copies /  16050 of book cover  36
 15959 copies /  25500 of book cover  31
 15606 copies /  26350 of book cover  30
 15153 copies /  95000 of book cover   1
 11900 copies /  11900 of book cover  38
 11863 copies /  32700 of book cover  25
 11802 copies /  32700 of book cover  25
 11391 copies /  34300 of book cover  24
 11000 copies /  11000 of book cover  39
 10999 copies /  39000 of book cover  20
 10999 copies /  19000 of book cover  35
 10744 copies /  26350 of book cover  30
 10000 copies /  10000 of book cover  40
 10000 copies /  10000 of book cover  41
  9541 copies /  25500 of book cover  31
  9035 copies /  32700 of book cover  25
  8001 copies /  22400 of book cover  32
  8001 copies /  19000 of book cover  35
  7998 copies /  22400 of book cover  32
  7800 copies /   7800 of book cover  42
  7005 copies /  39000 of book cover  20
  7005 copies /  14000 of book cover  37
  6551 copies /  14000 of book cover  37
  6000 copies /   6000 of book cover  43
  5475 copies /  85500 of book cover   3
  4985 copies /  22400 of book cover  32
  4902 copies /  28000 of book cover  29
  4500 copies /   4500 of book cover  44
  2900 copies /   2900 of book cover  47
  2811 copies /  69000 of book cover   8
  2761 copies /   4000 of book cover  45
  2678 copies /   3000 of book cover  46
  1450 copies /   1450 of book cover  48
  1416 copies /  22400 of book cover  32
  1239 copies /   4000 of book cover  45
   750 copies /    750 of book cover  50
   500 copies /   1000 of book cover  49
   500 copies /   1000 of book cover  49
   444 copies /  14000 of book cover  37
   322 copies /   3000 of book cover  46
Phenotype (CppSolution):
Demand fulfillment:
  1:  96075 /  95000 ( 1075 extra)
  2:  91000 /  90000 ( 1000 extra)
  3:  85500 /  85500 (    0 extra)
  4:  80025 /  80000 (   25 extra)
  5:  80025 /  77000 ( 3025 extra)
  6:  73766 /  72300 ( 1466 extra)
  7:  72000 /  70500 ( 1500 extra)
  8:  69900 /  69000 (  900 extra)
  9:  67000 /  67000 (    0 extra)
 10:  67000 /  67000 (    0 extra)
 11:  62134 /  61700 (  434 extra)
 12:  67000 /  60000 ( 7000 extra)
 13:  67000 /  57650 ( 9350 extra)
 14:  57000 /  55500 ( 1500 extra)
 15:  52100 /  52100 (    0 extra)
 16:  52100 /  51000 ( 1100 extra)
 17:  52100 /  50000 ( 2100 extra)
 18:  43766 /  43500 (  266 extra)
 19:  43766 /  43000 (  766 extra)
 20:  39005 /  39000 (    5 extra)
 21:  38900 /  38900 (    0 extra)
 22:  38900 /  37000 ( 1900 extra)
 23:  36000 /  36000 (    0 extra)
 24:  35134 /  34300 (  834 extra)
 25:  33800 /  32700 ( 1100 extra)
 26:  30000 /  30000 (    0 extra)
 27:  30000 /  30000 (    0 extra)
 28:  30000 /  28300 ( 1700 extra)
 29:  28709 /  28000 (  709 extra)
 30:  27050 /  26350 (  700 extra)
 31:  26050 /  25500 (  550 extra)
 32:  22927 /  22400 (  527 extra)
 33:  21000 /  21000 (    0 extra)
 34:  21000 /  21000 (    0 extra)
 35:  19001 /  19000 (    1 extra)
 36:  16050 /  16050 (    0 extra)
 37:  14510 /  14000 (  510 extra)
 38:  11900 /  11900 (    0 extra)
 39:  11000 /  11000 (    0 extra)
 40:  10000 /  10000 (    0 extra)
 41:  10000 /  10000 (    0 extra)
 42:   8001 /   7800 (  201 extra)
 43:   7005 /   6000 ( 1005 extra)
 44:   5475 /   4500 (  975 extra)
 45:   4350 /   4000 (  350 extra)
 46:   3400 /   3000 (  400 extra)
 47:   2900 /   2900 (    0 extra)
 48:   1450 /   1450 (    0 extra)
 49:   1000 /   1000 (    0 extra)
 50:   1450 /    750 (  700 extra)
Plates configuration:
|   1 |   3 |   4 |   5 | :  80025 printings
|   8 |  10 |  12 |  13 | :  67000 printings
|   2 |  15 |  16 |  17 | :  52100 printings
|   6 |   9 |  18 |  19 | :  43766 printings
|   2 |  11 |  21 |  22 | :  38900 printings
|   7 |   7 |  14 |  23 | :  36000 printings
|   6 |  26 |  27 |  28 | :  30000 printings
|   9 |  11 |  24 |  29 | :  23234 printings
|  14 |  20 |  33 |  34 | :  21000 printings
|   1 |  30 |  31 |  36 | :  16050 printings
|  24 |  25 |  25 |  38 | :  11900 printings
|  20 |  30 |  35 |  39 | :  11000 printings
|  25 |  31 |  40 |  41 | :  10000 printings
|  32 |  32 |  35 |  42 | :   8001 printings
|  20 |  37 |  37 |  43 | :   7005 printings
|   3 |  29 |  32 |  44 | :   5475 printings
|   8 |  45 |  46 |  47 | :   2900 printings
|  32 |  45 |  48 |  50 | :   1450 printings
|  37 |  46 |  49 |  49 | :    500 printings
Feasible solution: true
Total printings: 466306
Total waste: 2.3415 %
Quality: 6621996.64


Encoded representation 1 (GenomeSp):
(126 keys) 0.0887565909562118 ; 0.5712786780583418 ; 0.716361111409133 ; 0.9183486944724896 ; 0.9791422804226155 ; 0.4513860974188114 ; 0.9293746393683836 ; 0.41959901616295514 ; 0.2008316284127113 ; 0.4510498191527418 ; 0.733137393775672 ; 0.7677953768233683 ; 0.09473625604971214 ; 0.16341730706967605 ; 0.2384624737626614 ; 0.5206296727782033 ; 0.5971443416309457 ; 0.6723474216875539 ; 0.031989896959700004 ; 0.6401149483820996 ; 0.47782844786643663 ; 0.5300052055111322 ; 0.6702573515581587 ; 0.33225575192406054 ; 0.8230784769353573 ; 0.313199456103876 ; 0.3484866053857436 ; 0.4608800156584024 ; 0.6005961269132516 ; 0.3588893017853748 ; 0.7422296301630312 ; 0.7205180146517404 ; 0.7602973723168859 ; 0.5854224113750048 ; 0.13468697779004646 ; 0.9440738206552276 ; 0.5801826716964344 ; 0.41122389187452235 ; 0.24894657520802843 ; 0.43651232804804907 ; 0.9166914960537799 ; 0.8734345270467768 ; 0.9446399665754049 ; 0.16161854330100323 ; 0.11747449675622734 ; 0.38970945751470354 ; 0.8329198498146145 ; 0.8255349883098656 ; 0.8875489817986647 ; 0.6592569695253038 ; 0.6055518964337869 ; 0.503027963951435 ; 0.13580089995694922 ; 0.30729529926976273 ; 0.5095402113220981 ; 0.8211802548359151 ; 0.13538902079849757 ; 0.690852267672323 ; 0.2509203915363255 ; 0.6774984735508363 ; 0.34280052655702764 ; 0.3914881899248851 ; 0.24531175845873066 ; 0.5708476705845675 ; 0.1007413196872996 ; 0.02079923510621473 ; 0.7144295728617067 ; 0.8879074515887007 ; 0.7819993641395204 ; 0.1635986999195541 ; 0.8158473577127228 ; 0.10974942665356391 ; 0.7913912307860838 ; 0.3269700520201363 ; 0.2145638170684927 ; 0.6645438811374174 ; 0.5478352571738826 ; 0.3332627156010669 ; 0.19366488654474745 ; 0.4430805943736249 ; 0.24785145128691555 ; 0.5363926013110029 ; 0.4124859739557132 ; 0.6914008703473453 ; 0.32054142936040275 ; 0.3205309688126383 ; 0.7436821509592663 ; 0.05884324672788499 ; 0.09382864885286635 ; 0.9394776245508414 ; 0.6847431633711689 ; 0.5881529247810238 ; 0.4845735759929555 ; 0.15825642136409845 ; 0.8075893981181419 ; 0.6277468705222112 ; 0.25393811493189 ; 0.1346860070778193 ; 0.13029733161106183 ; 0.17685857277759276 ; 0.38492642722075576 ; 0.6468267955163518 ; 0.6759339033976971 ; 0.012236037678260092 ; 0.744194642967569 ; 0.8424609503049026 ; 0.5248257284635764 ; 0.0029764375275341814 ; 0.43946538863196705 ; 0.17968242604187734 ; 0.20861869099310448 ; 0.20209999307866966 ; 0.46310625227891666 ; 0.4631671506466385 ; 0.3614458698877474 ; 0.36134182756866795 ; 0.7968989773868078 ; 0.06201735272788378 ; 0.0886829805591226 ; 0.2655379062129253 ; 0.9518728677826761 ; 0.950018864298176 ; 0.2525650004708415 ; 0.4211878756359275 ; 0.6361358839175657 ; 0.6361533076459401
Encoded representation 2 (Slots):
 67000 copies /  67000 of book cover   9
 67000 copies /  67000 of book cover  10
 66891 copies /  80000 of book cover   4
 62417 copies /  90000 of book cover   2
 57650 copies /  57650 of book cover  13
 57192 copies /  69000 of book cover   8
 56189 copies /  77000 of book cover   5
 55500 copies /  55500 of book cover  14
 52886 copies /  60000 of book cover  12
 52762 copies /  85500 of book cover   3
 52100 copies /  52100 of book cover  15
 51893 copies /  95000 of book cover   1
 51025 copies /  61700 of book cover  11
 51000 copies /  51000 of book cover  16
 50000 copies /  50000 of book cover  17
 49310 copies /  70500 of book cover   7
 43500 copies /  43500 of book cover  18
 43107 copies /  95000 of book cover   1
 43000 copies /  43000 of book cover  19
 39000 copies /  39000 of book cover  20
 38900 copies /  38900 of book cover  21
 38547 copies /  72300 of book cover   6
 37000 copies /  37000 of book cover  22
 36000 copies /  36000 of book cover  23
 34300 copies /  34300 of book cover  24
 33753 copies /  72300 of book cover   6
 32738 copies /  85500 of book cover   3
 30000 copies /  30000 of book cover  27
 28300 copies /  28300 of book cover  28
 28000 copies /  28000 of book cover  29
 27800 copies /  30000 of book cover  26
 27583 copies /  90000 of book cover   2
 21322 copies /  25500 of book cover  31
 21190 copies /  70500 of book cover   7
 20811 copies /  77000 of book cover   5
 19000 copies /  19000 of book cover  35
 16350 copies /  32700 of book cover  25
 16350 copies /  32700 of book cover  25
 15948 copies /  22400 of book cover  32
 15765 copies /  16050 of book cover  36
 14447 copies /  26350 of book cover  30
 14389 copies /  21000 of book cover  34
 14000 copies /  14000 of book cover  37
 13109 copies /  80000 of book cover   4
 11903 copies /  26350 of book cover  30
 11900 copies /  11900 of book cover  38
 11808 copies /  69000 of book cover   8
 11000 copies /  11000 of book cover  39
 10675 copies /  61700 of book cover  11
 10674 copies /  21000 of book cover  33
 10326 copies /  21000 of book cover  33
 10000 copies /  10000 of book cover  40
  7114 copies /  60000 of book cover  12
  7098 copies /  10000 of book cover  41
  6611 copies /  21000 of book cover  34
  6452 copies /  22400 of book cover  32
  4178 copies /  25500 of book cover  31
  4000 copies /   4000 of book cover  45
  3962 copies /   7800 of book cover  42
  3838 copies /   7800 of book cover  42
  3000 copies /   6000 of book cover  43
  3000 copies /   6000 of book cover  43
  3000 copies /   3000 of book cover  46
  2902 copies /  10000 of book cover  41
  2250 copies /   4500 of book cover  44
  2250 copies /   4500 of book cover  44
  2200 copies /  30000 of book cover  26
  2174 copies /   2900 of book cover  47
   726 copies /   2900 of book cover  47
   726 copies /   1450 of book cover  48
   724 copies /   1450 of book cover  48
   625 copies /   1000 of book cover  49
   375 copies /   1000 of book cover  49
   375 copies /    750 of book cover  50
   375 copies /    750 of book cover  50
   285 copies /  16050 of book cover  36
Phenotype (CppSolution):
Demand fulfillment:
  1:  96386 /  95000 ( 1386 extra)
  2:  95300 /  90000 ( 5300 extra)
  3:  87186 /  85500 ( 1686 extra)
  4:  81447 /  80000 ( 1447 extra)
  5:  78972 /  77000 ( 1972 extra)
  6:  73200 /  72300 (  900 extra)
  7:  72347 /  70500 ( 1847 extra)
  8:  69553 /  69000 (  553 extra)
  9:  67000 /  67000 (    0 extra)
 10:  67000 /  67000 (    0 extra)
 11:  61700 /  61700 (    0 extra)
 12:  60000 /  60000 (    0 extra)
 13:  57650 /  57650 (    0 extra)
 14:  57650 /  55500 ( 2150 extra)
 15:  52886 /  52100 (  786 extra)
 16:  51025 /  51000 (   25 extra)
 17:  51025 /  50000 ( 1025 extra)
 18:  43500 /  43500 (    0 extra)
 19:  43500 /  43000 (  500 extra)
 20:  43500 /  39000 ( 4500 extra)
 21:  38900 /  38900 (    0 extra)
 22:  38900 /  37000 ( 1900 extra)
 23:  38900 /  36000 ( 2900 extra)
 24:  34300 /  34300 (    0 extra)
 25:  32700 /  32700 (    0 extra)
 26:  30550 /  30000 (  550 extra)
 27:  34300 /  30000 ( 4300 extra)
 28:  28300 /  28300 (    0 extra)
 29:  28300 /  28000 (  300 extra)
 30:  26350 /  26350 (    0 extra)
 31:  25500 /  25500 (    0 extra)
 32:  23464 /  22400 ( 1064 extra)
 33:  21350 /  21000 (  350 extra)
 34:  21561 /  21000 (  561 extra)
 35:  21322 /  19000 ( 2322 extra)
 36:  16725 /  16050 (  675 extra)
 37:  14447 /  14000 (  447 extra)
 38:  11903 /  11900 (    3 extra)
 39:  11903 /  11000 (  903 extra)
 40:  10675 /  10000 (  675 extra)
 41:  10114 /  10000 (  114 extra)
 42:   8356 /   7800 (  556 extra)
 43:   6000 /   6000 (    0 extra)
 44:   4500 /   4500 (    0 extra)
 45:   4178 /   4000 (  178 extra)
 46:   3000 /   3000 (    0 extra)
 47:   2976 /   2900 (   76 extra)
 48:   1452 /   1450 (    2 extra)
 49:   1101 /   1000 (  101 extra)
 50:    750 /    750 (    0 extra)
Plates configuration:
|   2 |   4 |   9 |  10 | :  67000 printings
|   5 |   8 |  13 |  14 | :  57650 printings
|   1 |   3 |  12 |  15 | :  52886 printings
|   7 |  11 |  16 |  17 | :  51025 printings
|   1 |  18 |  19 |  20 | :  43500 printings
|   6 |  21 |  22 |  23 | :  38900 printings
|   3 |   6 |  24 |  27 | :  34300 printings
|   2 |  26 |  28 |  29 | :  28300 printings
|   5 |   7 |  31 |  35 | :  21322 printings
|  25 |  25 |  32 |  36 | :  16350 printings
|   4 |  30 |  34 |  37 | :  14447 printings
|   8 |  30 |  38 |  39 | :  11903 printings
|  11 |  33 |  33 |  40 | :  10675 printings
|  12 |  32 |  34 |  41 | :   7114 printings
|  31 |  42 |  42 |  45 | :   4178 printings
|  41 |  43 |  43 |  46 | :   3000 printings
|  26 |  44 |  44 |  47 | :   2250 printings
|  47 |  48 |  48 |  49 | :    726 printings
|  36 |  49 |  50 |  50 | :    375 printings
Feasible solution: true
Total printings: 465901
Total waste: 2.2566 %
Quality: 6616553.4399999995