/**
 * Study03
 * <p>
 * Protocol:
 * Same as Study02 except we have many more copies of each neighboring operator (10x the Study02).
 * Run the steepest ascent hill climbing for a given number of iterations (15000) multiple times.
 * Keep track of the best cost known at each iteration.
 * <p>
 * Output:
 * Plot the average and median best known per iteration.
 * <p>
 * Opti strategy:
 * Steepest ascent hill climbing.
 * <p>
 * CPP instance:
 * 30 book covers reference instance (10 offset plates).
 * <p>
 * Solution representation:
 * GenomeC (for each extra slot: the book cover to put on it and how many nb printings to split out of its initial slot).
 * <p>
 * Neighboring operators:
 * - 40 * (randomize the whole genome)
 * - 60 * (randomize 1 random key then randomize 1 random key)
 * - 60 * (2/20 = 10% proba to add a rand value between -0.05 (inclusive) and +0.05 (exclusive) to each key)
 * - 60 * (add a rand value between -0.05 (inclusive) and +0.05 (exclusive) to two random adjacent keys)
 */

Run count: 54
      1:	avg = 122440.407407	median = 122500.000000
     15:	avg = 119778.722222	median = 119620.000000
     30:	avg = 119003.629630	median = 119048.500000
     45:	avg = 118701.425926	median = 118615.500000
     60:	avg = 118557.981481	median = 118533.000000
     75:	avg = 118422.388889	median = 118507.000000
     90:	avg = 118370.833333	median = 118500.500000
    105:	avg = 118293.148148	median = 118328.000000
    120:	avg = 118223.703704	median = 118106.000000
    135:	avg = 118180.666667	median = 118037.500000
    150:	avg = 118146.759259	median = 118031.500000
    165:	avg = 118114.592593	median = 118026.000000
    180:	avg = 118084.240741	median = 118025.000000
    195:	avg = 118063.500000	median = 118016.000000
    210:	avg = 118047.425926	median = 118016.000000
    225:	avg = 118022.629630	median = 118013.500000
    240:	avg = 118013.777778	median = 118009.000000
    255:	avg = 117998.407407	median = 118009.000000
    270:	avg = 117993.814815	median = 118009.000000
    285:	avg = 117992.592593	median = 118008.500000
    300:	avg = 117991.370370	median = 118008.000000
    315:	avg = 117990.629630	median = 118005.500000
    330:	avg = 117979.944444	median = 118005.000000
    345:	avg = 117962.685185	median = 118005.000000
    360:	avg = 117954.444444	median = 118004.500000
    375:	avg = 117951.907407	median = 118004.000000
    390:	avg = 117950.240741	median = 118004.000000
    405:	avg = 117949.425926	median = 118003.500000
    420:	avg = 117942.740741	median = 118003.000000
    435:	avg = 117935.240741	median = 118003.000000
    450:	avg = 117934.407407	median = 118003.000000
    465:	avg = 117933.351852	median = 118002.500000
    480:	avg = 117932.370370	median = 118002.500000
    495:	avg = 117931.703704	median = 118002.500000
    510:	avg = 117931.407407	median = 118002.500000
    525:	avg = 117931.185185	median = 118002.500000
    540:	avg = 117930.907407	median = 118002.500000
    555:	avg = 117930.611111	median = 118002.500000
    570:	avg = 117930.592593	median = 118002.500000
    585:	avg = 117923.592593	median = 118002.000000
    600:	avg = 117921.148148	median = 118002.000000
    615:	avg = 117909.444444	median = 118002.000000
    630:	avg = 117907.518519	median = 118002.000000
    645:	avg = 117906.148148	median = 118002.000000
    660:	avg = 117905.777778	median = 118002.000000
    675:	avg = 117904.925926	median = 118002.000000
    690:	avg = 117904.462963	median = 118002.000000
    705:	avg = 117888.722222	median = 118002.000000
    720:	avg = 117886.111111	median = 118001.500000
    735:	avg = 117885.777778	median = 118001.000000
    750:	avg = 117885.333333	median = 118001.000000
    765:	avg = 117883.277778	median = 118001.000000
    780:	avg = 117883.222222	median = 118001.000000
    795:	avg = 117881.777778	median = 118001.000000
    810:	avg = 117881.648148	median = 118001.000000
    825:	avg = 117880.351852	median = 118001.000000
    840:	avg = 117877.555556	median = 118001.000000
    855:	avg = 117877.388889	median = 118001.000000
    870:	avg = 117877.018519	median = 118001.000000
    885:	avg = 117875.851852	median = 118001.000000
    900:	avg = 117868.092593	median = 118001.000000
    915:	avg = 117866.981481	median = 118001.000000
    930:	avg = 117859.018519	median = 118000.500000
    945:	avg = 117858.555556	median = 118000.500000
    960:	avg = 117857.277778	median = 118000.500000
    975:	avg = 117857.203704	median = 118000.000000
    990:	avg = 117857.185185	median = 118000.000000
   1005:	avg = 117856.962963	median = 118000.000000
   1020:	avg = 117856.759259	median = 118000.000000
   1035:	avg = 117856.351852	median = 118000.000000
   1050:	avg = 117856.314815	median = 118000.000000
   1065:	avg = 117856.148148	median = 118000.000000
   1080:	avg = 117855.962963	median = 118000.000000
   1095:	avg = 117855.592593	median = 118000.000000
   1110:	avg = 117855.407407	median = 118000.000000
   1125:	avg = 117855.388889	median = 118000.000000
   1140:	avg = 117855.277778	median = 118000.000000
   1155:	avg = 117854.148148	median = 118000.000000
   1170:	avg = 117852.055556	median = 118000.000000
   1185:	avg = 117851.851852	median = 118000.000000
   1200:	avg = 117851.759259	median = 118000.000000
   1215:	avg = 117851.611111	median = 118000.000000
   1230:	avg = 117851.259259	median = 118000.000000
   1245:	avg = 117851.111111	median = 118000.000000
   1260:	avg = 117850.833333	median = 118000.000000
   1275:	avg = 117850.592593	median = 118000.000000
   1290:	avg = 117850.018519	median = 118000.000000
   1305:	avg = 117849.907407	median = 118000.000000
   1320:	avg = 117849.851852	median = 118000.000000
   1335:	avg = 117849.814815	median = 118000.000000
   1350:	avg = 117849.222222	median = 118000.000000
   1365:	avg = 117849.166667	median = 118000.000000
   1380:	avg = 117849.111111	median = 118000.000000
   1395:	avg = 117849.111111	median = 118000.000000
   1410:	avg = 117848.981481	median = 118000.000000
   1425:	avg = 117848.944444	median = 118000.000000
   1440:	avg = 117848.907407	median = 118000.000000
   1455:	avg = 117848.888889	median = 118000.000000
   1470:	avg = 117848.888889	median = 118000.000000
   1485:	avg = 117848.888889	median = 118000.000000
   1500:	avg = 117841.000000	median = 118000.000000
   1515:	avg = 117839.944444	median = 118000.000000
   1530:	avg = 117839.851852	median = 118000.000000
   1545:	avg = 117839.481481	median = 118000.000000
   1560:	avg = 117839.462963	median = 118000.000000
   1575:	avg = 117839.314815	median = 118000.000000
   1590:	avg = 117837.185185	median = 118000.000000
   1605:	avg = 117835.333333	median = 118000.000000
   1620:	avg = 117834.722222	median = 118000.000000
   1635:	avg = 117834.000000	median = 118000.000000
   1650:	avg = 117833.833333	median = 118000.000000
   1665:	avg = 117829.203704	median = 118000.000000
   1680:	avg = 117820.148148	median = 118000.000000
   1695:	avg = 117818.981481	median = 118000.000000
   1710:	avg = 117816.759259	median = 118000.000000
   1725:	avg = 117816.555556	median = 118000.000000
   1740:	avg = 117816.518519	median = 118000.000000
   1755:	avg = 117816.055556	median = 118000.000000
   1770:	avg = 117815.740741	median = 118000.000000
   1785:	avg = 117815.685185	median = 118000.000000
   1800:	avg = 117815.203704	median = 118000.000000
   1815:	avg = 117815.148148	median = 118000.000000
   1830:	avg = 117815.092593	median = 118000.000000
   1845:	avg = 117815.018519	median = 118000.000000
   1860:	avg = 117814.962963	median = 118000.000000
   1875:	avg = 117814.944444	median = 118000.000000
   1890:	avg = 117814.944444	median = 118000.000000
   1905:	avg = 117814.944444	median = 118000.000000
   1920:	avg = 117814.888889	median = 118000.000000
   1935:	avg = 117814.888889	median = 118000.000000
   1950:	avg = 117814.851852	median = 118000.000000
   1965:	avg = 117814.851852	median = 118000.000000
   1980:	avg = 117814.851852	median = 118000.000000
   1995:	avg = 117814.814815	median = 118000.000000
   2010:	avg = 117808.574074	median = 118000.000000
   2025:	avg = 117806.129630	median = 118000.000000
   2040:	avg = 117806.000000	median = 118000.000000
   2055:	avg = 117805.759259	median = 118000.000000
   2070:	avg = 117805.722222	median = 118000.000000
   2085:	avg = 117805.685185	median = 118000.000000
   2100:	avg = 117805.685185	median = 118000.000000
   2115:	avg = 117798.759259	median = 118000.000000
   2130:	avg = 117788.462963	median = 117879.000000
   2145:	avg = 117785.444444	median = 117801.500000
   2160:	avg = 117778.703704	median = 117757.000000
   2175:	avg = 117778.462963	median = 117757.000000
   2190:	avg = 117773.462963	median = 117755.000000
   2205:	avg = 117773.444444	median = 117755.000000
   2220:	avg = 117773.425926	median = 117755.000000
   2235:	avg = 117773.296296	median = 117755.000000
   2250:	avg = 117773.296296	median = 117755.000000
   2265:	avg = 117773.259259	median = 117755.000000
   2280:	avg = 117773.148148	median = 117755.000000
   2295:	avg = 117773.148148	median = 117755.000000
   2310:	avg = 117773.111111	median = 117755.000000
   2325:	avg = 117773.111111	median = 117755.000000
   2340:	avg = 117764.351852	median = 117754.000000
   2355:	avg = 117764.277778	median = 117754.000000
   2370:	avg = 117764.277778	median = 117754.000000
   2385:	avg = 117764.185185	median = 117754.000000
   2400:	avg = 117764.037037	median = 117754.000000
   2415:	avg = 117764.037037	median = 117754.000000
   2430:	avg = 117764.000000	median = 117754.000000
   2445:	avg = 117763.962963	median = 117754.000000
   2460:	avg = 117763.833333	median = 117754.000000
   2475:	avg = 117763.796296	median = 117754.000000
   2490:	avg = 117763.777778	median = 117754.000000
   2505:	avg = 117763.777778	median = 117754.000000
   2520:	avg = 117763.777778	median = 117754.000000
   2535:	avg = 117763.740741	median = 117754.000000
   2550:	avg = 117763.740741	median = 117754.000000
   2565:	avg = 117763.740741	median = 117754.000000
   2580:	avg = 117763.740741	median = 117754.000000
   2595:	avg = 117763.740741	median = 117754.000000
   2610:	avg = 117763.722222	median = 117754.000000
   2625:	avg = 117763.666667	median = 117754.000000
   2640:	avg = 117763.592593	median = 117754.000000
   2655:	avg = 117763.462963	median = 117754.000000
   2670:	avg = 117763.462963	median = 117754.000000
   2685:	avg = 117763.351852	median = 117754.000000
   2700:	avg = 117763.333333	median = 117754.000000
   2715:	avg = 117763.240741	median = 117754.000000
   2730:	avg = 117763.203704	median = 117754.000000
   2745:	avg = 117763.185185	median = 117754.000000
   2760:	avg = 117763.166667	median = 117754.000000
   2775:	avg = 117763.111111	median = 117754.000000
   2790:	avg = 117763.037037	median = 117754.000000
   2805:	avg = 117762.925926	median = 117754.000000
   2820:	avg = 117762.888889	median = 117753.500000
   2835:	avg = 117762.870370	median = 117753.500000
   2850:	avg = 117762.870370	median = 117753.500000
   2865:	avg = 117762.796296	median = 117753.500000
   2880:	avg = 117762.777778	median = 117753.500000
   2895:	avg = 117762.759259	median = 117753.500000
   2910:	avg = 117762.685185	median = 117753.500000
   2925:	avg = 117762.685185	median = 117753.500000
   2940:	avg = 117762.685185	median = 117753.500000
   2955:	avg = 117762.685185	median = 117753.500000
   2970:	avg = 117762.685185	median = 117753.500000
   2985:	avg = 117762.685185	median = 117753.500000
   3000:	avg = 117762.666667	median = 117753.500000
   3015:	avg = 117762.666667	median = 117753.500000
   3030:	avg = 117762.629630	median = 117753.500000
   3045:	avg = 117762.629630	median = 117753.500000
   3060:	avg = 117762.611111	median = 117753.500000
   3075:	avg = 117762.592593	median = 117753.500000
   3090:	avg = 117762.592593	median = 117753.500000
   3105:	avg = 117762.592593	median = 117753.500000
   3120:	avg = 117762.574074	median = 117753.500000
   3135:	avg = 117762.574074	median = 117753.500000
   3150:	avg = 117762.574074	median = 117753.500000
   3165:	avg = 117762.537037	median = 117753.500000
   3180:	avg = 117761.425926	median = 117753.500000
   3195:	avg = 117761.314815	median = 117753.500000
   3210:	avg = 117758.685185	median = 117753.500000
   3225:	avg = 117757.370370	median = 117752.500000
   3240:	avg = 117756.648148	median = 117752.500000
   3255:	avg = 117756.518519	median = 117752.500000
   3270:	avg = 117754.592593	median = 117752.500000
   3285:	avg = 117754.555556	median = 117752.500000
   3300:	avg = 117754.537037	median = 117752.500000
   3315:	avg = 117754.537037	median = 117752.500000
   3330:	avg = 117754.537037	median = 117752.500000
   3345:	avg = 117754.518519	median = 117752.000000
   3360:	avg = 117754.500000	median = 117752.000000
   3375:	avg = 117754.500000	median = 117752.000000
   3390:	avg = 117754.481481	median = 117752.000000
   3405:	avg = 117754.481481	median = 117752.000000
   3420:	avg = 117754.481481	median = 117752.000000
   3435:	avg = 117754.481481	median = 117752.000000
   3450:	avg = 117754.370370	median = 117752.000000
   3465:	avg = 117754.370370	median = 117752.000000
   3480:	avg = 117754.370370	median = 117752.000000
   3495:	avg = 117754.370370	median = 117752.000000
   3510:	avg = 117754.370370	median = 117752.000000
   3525:	avg = 117754.370370	median = 117752.000000
   3540:	avg = 117754.351852	median = 117752.000000
   3555:	avg = 117736.888889	median = 117752.000000
   3570:	avg = 117728.203704	median = 117752.000000
   3585:	avg = 117722.129630	median = 117751.500000
   3600:	avg = 117718.759259	median = 117751.500000
   3615:	avg = 117718.462963	median = 117751.000000
   3630:	avg = 117713.870370	median = 117751.000000
   3645:	avg = 117713.814815	median = 117751.000000
   3660:	avg = 117713.814815	median = 117751.000000
   3675:	avg = 117713.666667	median = 117751.000000
   3690:	avg = 117713.592593	median = 117751.000000
   3705:	avg = 117713.518519	median = 117751.000000
   3720:	avg = 117713.518519	median = 117751.000000
   3735:	avg = 117713.500000	median = 117751.000000
   3750:	avg = 117713.296296	median = 117751.000000
   3765:	avg = 117713.240741	median = 117751.000000
   3780:	avg = 117713.222222	median = 117751.000000
   3795:	avg = 117713.111111	median = 117751.000000
   3810:	avg = 117713.074074	median = 117751.000000
   3825:	avg = 117713.055556	median = 117751.000000
   3840:	avg = 117713.018519	median = 117751.000000
   3855:	avg = 117713.018519	median = 117751.000000
   3870:	avg = 117713.000000	median = 117751.000000
   3885:	avg = 117713.000000	median = 117751.000000
   3900:	avg = 117712.388889	median = 117751.000000
   3915:	avg = 117712.296296	median = 117751.000000
   3930:	avg = 117712.296296	median = 117751.000000
   3945:	avg = 117712.296296	median = 117751.000000
   3960:	avg = 117712.277778	median = 117751.000000
   3975:	avg = 117712.240741	median = 117751.000000
   3990:	avg = 117712.240741	median = 117751.000000
   4005:	avg = 117712.148148	median = 117751.000000
   4020:	avg = 117712.148148	median = 117751.000000
   4035:	avg = 117712.092593	median = 117751.000000
   4050:	avg = 117712.092593	median = 117751.000000
   4065:	avg = 117712.074074	median = 117751.000000
   4080:	avg = 117712.074074	median = 117751.000000
   4095:	avg = 117711.888889	median = 117751.000000
   4110:	avg = 117711.888889	median = 117751.000000
   4125:	avg = 117707.592593	median = 117751.000000
   4140:	avg = 117707.425926	median = 117751.000000
   4155:	avg = 117707.407407	median = 117751.000000
   4170:	avg = 117707.259259	median = 117751.000000
   4185:	avg = 117707.222222	median = 117751.000000
   4200:	avg = 117703.351852	median = 117751.000000
   4215:	avg = 117702.666667	median = 117751.000000
   4230:	avg = 117702.666667	median = 117751.000000
   4245:	avg = 117702.648148	median = 117751.000000
   4260:	avg = 117702.574074	median = 117751.000000
   4275:	avg = 117702.537037	median = 117751.000000
   4290:	avg = 117702.537037	median = 117751.000000
   4305:	avg = 117702.462963	median = 117751.000000
   4320:	avg = 117702.444444	median = 117751.000000
   4335:	avg = 117702.444444	median = 117751.000000
   4350:	avg = 117702.444444	median = 117751.000000
   4365:	avg = 117702.425926	median = 117751.000000
   4380:	avg = 117702.425926	median = 117751.000000
   4395:	avg = 117702.425926	median = 117751.000000
   4410:	avg = 117702.425926	median = 117751.000000
   4425:	avg = 117702.425926	median = 117751.000000
   4440:	avg = 117702.425926	median = 117751.000000
   4455:	avg = 117702.425926	median = 117751.000000
   4470:	avg = 117702.425926	median = 117751.000000
   4485:	avg = 117702.388889	median = 117751.000000
   4500:	avg = 117702.388889	median = 117751.000000
   4515:	avg = 117702.388889	median = 117751.000000
   4530:	avg = 117702.388889	median = 117751.000000
   4545:	avg = 117702.388889	median = 117751.000000
   4560:	avg = 117702.351852	median = 117751.000000
   4575:	avg = 117702.240741	median = 117751.000000
   4590:	avg = 117702.203704	median = 117751.000000
   4605:	avg = 117702.203704	median = 117751.000000
   4620:	avg = 117702.185185	median = 117751.000000
   4635:	avg = 117702.148148	median = 117751.000000
   4650:	avg = 117702.111111	median = 117751.000000
   4665:	avg = 117702.111111	median = 117751.000000
   4680:	avg = 117702.111111	median = 117751.000000
   4695:	avg = 117702.111111	median = 117751.000000
   4710:	avg = 117702.092593	median = 117751.000000
   4725:	avg = 117702.092593	median = 117751.000000
   4740:	avg = 117702.092593	median = 117751.000000
   4755:	avg = 117702.092593	median = 117751.000000
   4770:	avg = 117702.037037	median = 117751.000000
   4785:	avg = 117702.037037	median = 117751.000000
   4800:	avg = 117702.037037	median = 117751.000000
   4815:	avg = 117702.037037	median = 117751.000000
   4830:	avg = 117702.037037	median = 117751.000000
   4845:	avg = 117702.037037	median = 117751.000000
   4860:	avg = 117702.037037	median = 117751.000000
   4875:	avg = 117702.037037	median = 117751.000000
   4890:	avg = 117702.018519	median = 117751.000000
   4905:	avg = 117702.000000	median = 117751.000000
   4920:	avg = 117702.000000	median = 117751.000000
   4935:	avg = 117701.981481	median = 117751.000000
   4950:	avg = 117701.944444	median = 117751.000000
   4965:	avg = 117701.944444	median = 117751.000000
   4980:	avg = 117701.925926	median = 117751.000000
   4995:	avg = 117701.888889	median = 117751.000000
   5010:	avg = 117701.888889	median = 117751.000000
   5025:	avg = 117701.888889	median = 117751.000000
   5040:	avg = 117693.611111	median = 117751.000000
   5055:	avg = 117693.370370	median = 117751.000000
   5070:	avg = 117693.222222	median = 117751.000000
   5085:	avg = 117693.037037	median = 117751.000000
   5100:	avg = 117692.944444	median = 117751.000000
   5115:	avg = 117692.944444	median = 117751.000000
   5130:	avg = 117692.944444	median = 117751.000000
   5145:	avg = 117692.907407	median = 117751.000000
   5160:	avg = 117691.537037	median = 117751.000000
   5175:	avg = 117688.555556	median = 117751.000000
   5190:	avg = 117688.351852	median = 117751.000000
   5205:	avg = 117688.259259	median = 117751.000000
   5220:	avg = 117688.092593	median = 117751.000000
   5235:	avg = 117688.055556	median = 117751.000000
   5250:	avg = 117688.018519	median = 117751.000000
   5265:	avg = 117687.962963	median = 117751.000000
   5280:	avg = 117687.962963	median = 117751.000000
   5295:	avg = 117687.944444	median = 117751.000000
   5310:	avg = 117687.944444	median = 117751.000000
   5325:	avg = 117687.944444	median = 117751.000000
   5340:	avg = 117687.944444	median = 117751.000000
   5355:	avg = 117687.888889	median = 117751.000000
   5370:	avg = 117687.888889	median = 117751.000000
   5385:	avg = 117687.888889	median = 117751.000000
   5400:	avg = 117681.314815	median = 117751.000000
   5415:	avg = 117679.129630	median = 117750.500000
   5430:	avg = 117678.648148	median = 117750.500000
   5445:	avg = 117678.611111	median = 117750.500000
   5460:	avg = 117678.574074	median = 117750.500000
   5475:	avg = 117671.055556	median = 117750.500000
   5490:	avg = 117669.629630	median = 117750.500000
   5505:	avg = 117669.629630	median = 117750.500000
   5520:	avg = 117669.574074	median = 117750.500000
   5535:	avg = 117669.574074	median = 117750.500000
   5550:	avg = 117669.444444	median = 117750.500000
   5565:	avg = 117669.351852	median = 117750.500000
   5580:	avg = 117669.351852	median = 117750.500000
   5595:	avg = 117669.351852	median = 117750.500000
   5610:	avg = 117669.351852	median = 117750.500000
   5625:	avg = 117669.333333	median = 117750.500000
   5640:	avg = 117669.333333	median = 117750.500000
   5655:	avg = 117669.333333	median = 117750.500000
   5670:	avg = 117669.333333	median = 117750.500000
   5685:	avg = 117669.333333	median = 117750.500000
   5700:	avg = 117669.333333	median = 117750.500000
   5715:	avg = 117669.314815	median = 117750.500000
   5730:	avg = 117669.314815	median = 117750.500000
   5745:	avg = 117669.314815	median = 117750.500000
   5760:	avg = 117669.314815	median = 117750.500000
   5775:	avg = 117669.296296	median = 117750.500000
   5790:	avg = 117667.722222	median = 117750.500000
   5805:	avg = 117664.611111	median = 117750.000000
   5820:	avg = 117664.555556	median = 117750.000000
   5835:	avg = 117664.555556	median = 117750.000000
   5850:	avg = 117664.555556	median = 117750.000000
   5865:	avg = 117664.537037	median = 117750.000000
   5880:	avg = 117664.537037	median = 117750.000000
   5895:	avg = 117664.537037	median = 117750.000000
   5910:	avg = 117664.500000	median = 117750.000000
   5925:	avg = 117664.444444	median = 117750.000000
   5940:	avg = 117664.444444	median = 117750.000000
   5955:	avg = 117664.425926	median = 117750.000000
   5970:	avg = 117664.425926	median = 117750.000000
   5985:	avg = 117664.407407	median = 117750.000000
   6000:	avg = 117664.407407	median = 117750.000000
   6015:	avg = 117664.388889	median = 117750.000000
   6030:	avg = 117664.388889	median = 117750.000000
   6045:	avg = 117664.388889	median = 117750.000000
   6060:	avg = 117664.388889	median = 117750.000000
   6075:	avg = 117664.388889	median = 117750.000000
   6090:	avg = 117664.388889	median = 117750.000000
   6105:	avg = 117664.388889	median = 117750.000000
   6120:	avg = 117664.388889	median = 117750.000000
   6135:	avg = 117664.370370	median = 117750.000000
   6150:	avg = 117664.314815	median = 117750.000000
   6165:	avg = 117664.314815	median = 117750.000000
   6180:	avg = 117664.314815	median = 117750.000000
   6195:	avg = 117664.314815	median = 117750.000000
   6210:	avg = 117664.296296	median = 117750.000000
   6225:	avg = 117664.296296	median = 117750.000000
   6240:	avg = 117664.259259	median = 117750.000000
   6255:	avg = 117664.259259	median = 117750.000000
   6270:	avg = 117664.222222	median = 117750.000000
   6285:	avg = 117664.222222	median = 117750.000000
   6300:	avg = 117664.222222	median = 117750.000000
   6315:	avg = 117664.222222	median = 117750.000000
   6330:	avg = 117664.166667	median = 117750.000000
   6345:	avg = 117664.166667	median = 117750.000000
   6360:	avg = 117664.166667	median = 117750.000000
   6375:	avg = 117664.166667	median = 117750.000000
   6390:	avg = 117664.166667	median = 117750.000000
   6405:	avg = 117664.166667	median = 117750.000000
   6420:	avg = 117664.166667	median = 117750.000000
   6435:	avg = 117664.166667	median = 117750.000000
   6450:	avg = 117664.166667	median = 117750.000000
   6465:	avg = 117664.166667	median = 117750.000000
   6480:	avg = 117664.166667	median = 117750.000000
   6495:	avg = 117664.166667	median = 117750.000000
   6510:	avg = 117664.148148	median = 117750.000000
   6525:	avg = 117664.148148	median = 117750.000000
   6540:	avg = 117664.129630	median = 117750.000000
   6555:	avg = 117664.129630	median = 117750.000000
   6570:	avg = 117664.129630	median = 117750.000000
   6585:	avg = 117664.129630	median = 117750.000000
   6600:	avg = 117664.129630	median = 117750.000000
   6615:	avg = 117663.907407	median = 117750.000000
   6630:	avg = 117663.907407	median = 117750.000000
   6645:	avg = 117663.907407	median = 117750.000000
   6660:	avg = 117663.907407	median = 117750.000000
   6675:	avg = 117663.888889	median = 117750.000000
   6690:	avg = 117663.888889	median = 117750.000000
   6705:	avg = 117663.888889	median = 117750.000000
   6720:	avg = 117663.833333	median = 117750.000000
   6735:	avg = 117663.740741	median = 117750.000000
   6750:	avg = 117663.722222	median = 117750.000000
   6765:	avg = 117663.703704	median = 117750.000000
   6780:	avg = 117663.703704	median = 117750.000000
   6795:	avg = 117663.703704	median = 117750.000000
   6810:	avg = 117663.703704	median = 117750.000000
   6825:	avg = 117663.703704	median = 117750.000000
   6840:	avg = 117663.666667	median = 117750.000000
   6855:	avg = 117663.666667	median = 117750.000000
   6870:	avg = 117663.666667	median = 117750.000000
   6885:	avg = 117663.666667	median = 117750.000000
   6900:	avg = 117663.666667	median = 117750.000000
   6915:	avg = 117663.666667	median = 117750.000000
   6930:	avg = 117663.666667	median = 117750.000000
   6945:	avg = 117655.092593	median = 117750.000000
   6960:	avg = 117654.888889	median = 117750.000000
   6975:	avg = 117654.777778	median = 117750.000000
   6990:	avg = 117654.685185	median = 117750.000000
   7005:	avg = 117654.685185	median = 117750.000000
   7020:	avg = 117654.611111	median = 117750.000000
   7035:	avg = 117654.592593	median = 117750.000000
   7050:	avg = 117654.592593	median = 117750.000000
   7065:	avg = 117654.592593	median = 117750.000000
   7080:	avg = 117654.555556	median = 117750.000000
   7095:	avg = 117654.537037	median = 117750.000000
   7110:	avg = 117654.537037	median = 117750.000000
   7125:	avg = 117654.537037	median = 117750.000000
   7140:	avg = 117654.537037	median = 117750.000000
   7155:	avg = 117654.537037	median = 117750.000000
   7170:	avg = 117654.500000	median = 117750.000000
   7185:	avg = 117654.462963	median = 117750.000000
   7200:	avg = 117654.444444	median = 117750.000000
   7215:	avg = 117654.444444	median = 117750.000000
   7230:	avg = 117654.444444	median = 117750.000000
   7245:	avg = 117654.444444	median = 117750.000000
   7260:	avg = 117654.444444	median = 117750.000000
   7275:	avg = 117654.444444	median = 117750.000000
   7290:	avg = 117654.444444	median = 117750.000000
   7305:	avg = 117654.444444	median = 117750.000000
   7320:	avg = 117654.444444	median = 117750.000000
   7335:	avg = 117654.444444	median = 117750.000000
   7350:	avg = 117654.444444	median = 117750.000000
   7365:	avg = 117654.444444	median = 117750.000000
   7380:	avg = 117654.425926	median = 117750.000000
   7395:	avg = 117650.814815	median = 117750.000000
   7410:	avg = 117647.944444	median = 117700.000000
   7425:	avg = 117646.629630	median = 117664.500000
   7440:	avg = 117646.611111	median = 117664.000000
   7455:	avg = 117646.611111	median = 117664.000000
   7470:	avg = 117646.388889	median = 117658.000000
   7485:	avg = 117646.388889	median = 117658.000000
   7500:	avg = 117646.388889	median = 117658.000000
   7515:	avg = 117646.388889	median = 117658.000000
   7530:	avg = 117646.296296	median = 117655.500000
   7545:	avg = 117646.203704	median = 117653.000000
   7560:	avg = 117646.148148	median = 117651.500000
   7575:	avg = 117646.111111	median = 117650.500000
   7590:	avg = 117646.111111	median = 117650.500000
   7605:	avg = 117646.111111	median = 117650.500000
   7620:	avg = 117646.111111	median = 117650.500000
   7635:	avg = 117646.092593	median = 117650.000000
   7650:	avg = 117645.981481	median = 117647.000000
   7665:	avg = 117645.907407	median = 117645.000000
   7680:	avg = 117645.851852	median = 117643.500000
   7695:	avg = 117645.833333	median = 117643.000000
   7710:	avg = 117645.814815	median = 117643.000000
   7725:	avg = 117645.814815	median = 117643.000000
   7740:	avg = 117645.777778	median = 117643.000000
   7755:	avg = 117645.777778	median = 117643.000000
   7770:	avg = 117645.759259	median = 117643.000000
   7785:	avg = 117645.759259	median = 117643.000000
   7800:	avg = 117645.740741	median = 117643.000000
   7815:	avg = 117645.740741	median = 117643.000000
   7830:	avg = 117645.740741	median = 117643.000000
   7845:	avg = 117645.740741	median = 117643.000000
   7860:	avg = 117645.740741	median = 117643.000000
   7875:	avg = 117645.740741	median = 117643.000000
   7890:	avg = 117645.722222	median = 117643.000000
   7905:	avg = 117645.722222	median = 117643.000000
   7920:	avg = 117645.722222	median = 117643.000000
   7935:	avg = 117645.722222	median = 117643.000000
   7950:	avg = 117645.722222	median = 117643.000000
   7965:	avg = 117645.722222	median = 117643.000000
   7980:	avg = 117645.722222	median = 117643.000000
   7995:	avg = 117645.722222	median = 117643.000000
   8010:	avg = 117645.722222	median = 117643.000000
   8025:	avg = 117645.722222	median = 117643.000000
   8040:	avg = 117645.722222	median = 117643.000000
   8055:	avg = 117645.722222	median = 117643.000000
   8070:	avg = 117645.722222	median = 117643.000000
   8085:	avg = 117645.722222	median = 117643.000000
   8100:	avg = 117645.722222	median = 117643.000000
   8115:	avg = 117645.722222	median = 117643.000000
   8130:	avg = 117645.703704	median = 117642.500000
   8145:	avg = 117645.685185	median = 117642.000000
   8160:	avg = 117645.685185	median = 117642.000000
   8175:	avg = 117645.685185	median = 117642.000000
   8190:	avg = 117645.685185	median = 117642.000000
   8205:	avg = 117645.685185	median = 117642.000000
   8220:	avg = 117645.685185	median = 117642.000000
   8235:	avg = 117645.685185	median = 117642.000000
   8250:	avg = 117645.685185	median = 117642.000000
   8265:	avg = 117645.685185	median = 117642.000000
   8280:	avg = 117641.888889	median = 117642.000000
   8295:	avg = 117637.703704	median = 117552.000000
   8310:	avg = 117637.037037	median = 117534.000000
   8325:	avg = 117637.018519	median = 117534.000000
   8340:	avg = 117636.666667	median = 117524.500000
   8355:	avg = 117636.648148	median = 117524.500000
   8370:	avg = 117636.555556	median = 117522.000000
   8385:	avg = 117636.537037	median = 117522.000000
   8400:	avg = 117636.537037	median = 117522.000000
   8415:	avg = 117636.537037	median = 117522.000000
   8430:	avg = 117636.537037	median = 117522.000000
   8445:	avg = 117636.537037	median = 117522.000000
   8460:	avg = 117636.481481	median = 117522.000000
   8475:	avg = 117636.481481	median = 117522.000000
   8490:	avg = 117636.481481	median = 117522.000000
   8505:	avg = 117636.462963	median = 117522.000000
   8520:	avg = 117636.462963	median = 117522.000000
   8535:	avg = 117636.462963	median = 117522.000000
   8550:	avg = 117636.462963	median = 117522.000000
   8565:	avg = 117636.462963	median = 117522.000000
   8580:	avg = 117636.462963	median = 117522.000000
   8595:	avg = 117636.462963	median = 117522.000000
   8610:	avg = 117636.462963	median = 117522.000000
   8625:	avg = 117636.462963	median = 117522.000000
   8640:	avg = 117636.462963	median = 117522.000000
   8655:	avg = 117636.462963	median = 117522.000000
   8670:	avg = 117636.462963	median = 117522.000000
   8685:	avg = 117636.444444	median = 117522.000000
   8700:	avg = 117636.444444	median = 117522.000000
   8715:	avg = 117636.444444	median = 117522.000000
   8730:	avg = 117636.444444	median = 117522.000000
   8745:	avg = 117636.444444	median = 117522.000000
   8760:	avg = 117636.444444	median = 117522.000000
   8775:	avg = 117636.425926	median = 117522.000000
   8790:	avg = 117636.407407	median = 117522.000000
   8805:	avg = 117636.407407	median = 117522.000000
   8820:	avg = 117636.388889	median = 117521.500000
   8835:	avg = 117636.388889	median = 117521.500000
   8850:	avg = 117636.388889	median = 117521.500000
   8865:	avg = 117636.388889	median = 117521.500000
   8880:	avg = 117636.388889	median = 117521.500000
   8895:	avg = 117636.388889	median = 117521.500000
   8910:	avg = 117636.388889	median = 117521.500000
   8925:	avg = 117636.388889	median = 117521.500000
   8940:	avg = 117636.370370	median = 117521.000000
   8955:	avg = 117636.370370	median = 117521.000000
   8970:	avg = 117636.370370	median = 117521.000000
   8985:	avg = 117636.296296	median = 117519.000000
   9000:	avg = 117636.203704	median = 117516.500000
   9015:	avg = 117636.203704	median = 117516.500000
   9030:	avg = 117636.203704	median = 117516.500000
   9045:	avg = 117636.203704	median = 117516.500000
   9060:	avg = 117636.185185	median = 117516.500000
   9075:	avg = 117636.185185	median = 117516.500000
   9090:	avg = 117636.185185	median = 117516.500000
   9105:	avg = 117636.185185	median = 117516.500000
   9120:	avg = 117636.185185	median = 117516.500000
   9135:	avg = 117636.166667	median = 117516.500000
   9150:	avg = 117636.166667	median = 117516.500000
   9165:	avg = 117636.166667	median = 117516.500000
   9180:	avg = 117636.092593	median = 117516.500000
   9195:	avg = 117636.092593	median = 117516.500000
   9210:	avg = 117636.092593	median = 117516.500000
   9225:	avg = 117636.092593	median = 117516.500000
   9240:	avg = 117636.092593	median = 117516.500000
   9255:	avg = 117631.296296	median = 117516.500000
   9270:	avg = 117627.148148	median = 117516.500000
   9285:	avg = 117627.148148	median = 117516.500000
   9300:	avg = 117627.148148	median = 117516.500000
   9315:	avg = 117627.037037	median = 117513.500000
   9330:	avg = 117627.037037	median = 117513.500000
   9345:	avg = 117626.851852	median = 117513.500000
   9360:	avg = 117626.777778	median = 117512.000000
   9375:	avg = 117626.777778	median = 117512.000000
   9390:	avg = 117626.777778	median = 117512.000000
   9405:	avg = 117626.666667	median = 117512.000000
   9420:	avg = 117626.666667	median = 117512.000000
   9435:	avg = 117626.666667	median = 117512.000000
   9450:	avg = 117626.666667	median = 117512.000000
   9465:	avg = 117626.666667	median = 117512.000000
   9480:	avg = 117626.648148	median = 117512.000000
   9495:	avg = 117626.648148	median = 117512.000000
   9510:	avg = 117626.648148	median = 117512.000000
   9525:	avg = 117626.629630	median = 117512.000000
   9540:	avg = 117626.629630	median = 117512.000000
   9555:	avg = 117626.629630	median = 117512.000000
   9570:	avg = 117626.629630	median = 117512.000000
   9585:	avg = 117626.629630	median = 117512.000000
   9600:	avg = 117626.629630	median = 117512.000000
   9615:	avg = 117626.629630	median = 117512.000000
   9630:	avg = 117626.629630	median = 117512.000000
   9645:	avg = 117626.629630	median = 117512.000000
   9660:	avg = 117626.629630	median = 117512.000000
   9675:	avg = 117626.592593	median = 117512.000000
   9690:	avg = 117626.555556	median = 117512.000000
   9705:	avg = 117626.555556	median = 117512.000000
   9720:	avg = 117626.555556	median = 117512.000000
   9735:	avg = 117626.555556	median = 117512.000000
   9750:	avg = 117626.555556	median = 117512.000000
   9765:	avg = 117626.537037	median = 117512.000000
   9780:	avg = 117626.537037	median = 117512.000000
   9795:	avg = 117626.537037	median = 117512.000000
   9810:	avg = 117626.537037	median = 117512.000000
   9825:	avg = 117626.537037	median = 117512.000000
   9840:	avg = 117626.537037	median = 117512.000000
   9855:	avg = 117626.537037	median = 117512.000000
   9870:	avg = 117626.537037	median = 117512.000000
   9885:	avg = 117626.518519	median = 117511.500000
   9900:	avg = 117626.518519	median = 117511.500000
   9915:	avg = 117626.518519	median = 117511.500000
   9930:	avg = 117626.518519	median = 117511.500000
   9945:	avg = 117626.518519	median = 117511.500000
   9960:	avg = 117626.518519	median = 117511.500000
   9975:	avg = 117626.518519	median = 117511.500000
   9990:	avg = 117626.518519	median = 117511.500000
  10005:	avg = 117626.518519	median = 117511.500000
  10020:	avg = 117626.518519	median = 117511.500000
  10035:	avg = 117626.518519	median = 117511.500000
  10050:	avg = 117626.481481	median = 117511.500000
  10065:	avg = 117618.592593	median = 117511.500000
  10080:	avg = 117618.592593	median = 117511.500000
  10095:	avg = 117618.129630	median = 117511.500000
  10110:	avg = 117617.462963	median = 117511.500000
  10125:	avg = 117617.462963	median = 117511.500000
  10140:	avg = 117617.462963	median = 117511.500000
  10155:	avg = 117617.444444	median = 117511.500000
  10170:	avg = 117617.444444	median = 117511.500000
  10185:	avg = 117617.388889	median = 117510.500000
  10200:	avg = 117617.388889	median = 117510.500000
  10215:	avg = 117617.388889	median = 117510.500000
  10230:	avg = 117617.370370	median = 117510.000000
  10245:	avg = 117617.370370	median = 117510.000000
  10260:	avg = 117617.351852	median = 117509.500000
  10275:	avg = 117617.314815	median = 117509.000000
  10290:	avg = 117617.314815	median = 117509.000000
  10305:	avg = 117617.314815	median = 117509.000000
  10320:	avg = 117617.314815	median = 117509.000000
  10335:	avg = 117617.314815	median = 117509.000000
  10350:	avg = 117617.314815	median = 117509.000000
  10365:	avg = 117617.314815	median = 117509.000000
  10380:	avg = 117617.314815	median = 117509.000000
  10395:	avg = 117617.296296	median = 117509.000000
  10410:	avg = 117617.296296	median = 117509.000000
  10425:	avg = 117617.296296	median = 117509.000000
  10440:	avg = 117617.296296	median = 117509.000000
  10455:	avg = 117617.259259	median = 117509.000000
  10470:	avg = 117617.259259	median = 117509.000000
  10485:	avg = 117617.259259	median = 117509.000000
  10500:	avg = 117617.185185	median = 117509.000000
  10515:	avg = 117617.185185	median = 117509.000000
  10530:	avg = 117617.185185	median = 117509.000000
  10545:	avg = 117617.185185	median = 117509.000000
  10560:	avg = 117617.185185	median = 117509.000000
  10575:	avg = 117617.185185	median = 117509.000000
  10590:	avg = 117617.185185	median = 117509.000000
  10605:	avg = 117617.166667	median = 117509.000000
  10620:	avg = 117617.166667	median = 117509.000000
  10635:	avg = 117617.166667	median = 117509.000000
  10650:	avg = 117617.166667	median = 117509.000000
  10665:	avg = 117617.166667	median = 117509.000000
  10680:	avg = 117617.166667	median = 117509.000000
  10695:	avg = 117617.148148	median = 117509.000000
  10710:	avg = 117617.148148	median = 117509.000000
  10725:	avg = 117617.148148	median = 117509.000000
  10740:	avg = 117617.092593	median = 117507.500000
  10755:	avg = 117617.074074	median = 117507.500000
  10770:	avg = 117617.074074	median = 117507.500000
  10785:	avg = 117617.055556	median = 117507.500000
  10800:	avg = 117617.055556	median = 117507.500000
  10815:	avg = 117617.055556	median = 117507.500000
  10830:	avg = 117617.055556	median = 117507.500000
  10845:	avg = 117617.055556	median = 117507.500000
  10860:	avg = 117617.055556	median = 117507.500000
  10875:	avg = 117617.055556	median = 117507.500000
  10890:	avg = 117617.055556	median = 117507.500000
  10905:	avg = 117617.055556	median = 117507.500000
  10920:	avg = 117617.055556	median = 117507.500000
  10935:	avg = 117617.055556	median = 117507.500000
  10950:	avg = 117617.055556	median = 117507.500000
  10965:	avg = 117617.055556	median = 117507.500000
  10980:	avg = 117617.055556	median = 117507.500000
  10995:	avg = 117617.055556	median = 117507.500000
  11010:	avg = 117617.055556	median = 117507.500000
  11025:	avg = 117617.055556	median = 117507.500000
  11040:	avg = 117617.055556	median = 117507.500000
  11055:	avg = 117617.055556	median = 117507.500000
  11070:	avg = 117617.055556	median = 117507.500000
  11085:	avg = 117617.055556	median = 117507.500000
  11100:	avg = 117617.055556	median = 117507.500000
  11115:	avg = 117617.037037	median = 117507.500000
  11130:	avg = 117617.037037	median = 117507.500000
  11145:	avg = 117617.037037	median = 117507.500000
  11160:	avg = 117617.037037	median = 117507.500000
  11175:	avg = 117617.018519	median = 117507.500000
  11190:	avg = 117616.981481	median = 117507.500000
  11205:	avg = 117616.981481	median = 117507.500000
  11220:	avg = 117616.981481	median = 117507.500000
  11235:	avg = 117616.981481	median = 117507.500000
  11250:	avg = 117616.981481	median = 117507.500000
  11265:	avg = 117616.962963	median = 117507.500000
  11280:	avg = 117616.962963	median = 117507.500000
  11295:	avg = 117616.944444	median = 117507.500000
  11310:	avg = 117616.925926	median = 117507.500000
  11325:	avg = 117616.925926	median = 117507.500000
  11340:	avg = 117616.925926	median = 117507.500000
  11355:	avg = 117616.925926	median = 117507.500000
  11370:	avg = 117616.925926	median = 117507.500000
  11385:	avg = 117616.925926	median = 117507.500000
  11400:	avg = 117616.925926	median = 117507.500000
  11415:	avg = 117616.925926	median = 117507.500000
  11430:	avg = 117616.907407	median = 117507.000000
  11445:	avg = 117616.907407	median = 117507.000000
  11460:	avg = 117616.907407	median = 117507.000000
  11475:	avg = 117616.907407	median = 117507.000000
  11490:	avg = 117616.907407	median = 117507.000000
  11505:	avg = 117616.888889	median = 117507.000000
  11520:	avg = 117616.888889	median = 117507.000000
  11535:	avg = 117616.888889	median = 117507.000000
  11550:	avg = 117616.888889	median = 117507.000000
  11565:	avg = 117616.888889	median = 117507.000000
  11580:	avg = 117616.888889	median = 117507.000000
  11595:	avg = 117616.888889	median = 117507.000000
  11610:	avg = 117616.888889	median = 117507.000000
  11625:	avg = 117616.888889	median = 117507.000000
  11640:	avg = 117616.888889	median = 117507.000000
  11655:	avg = 117616.888889	median = 117507.000000
  11670:	avg = 117616.888889	median = 117507.000000
  11685:	avg = 117616.888889	median = 117507.000000
  11700:	avg = 117616.888889	median = 117507.000000
  11715:	avg = 117616.888889	median = 117507.000000
  11730:	avg = 117616.888889	median = 117507.000000
  11745:	avg = 117616.888889	median = 117507.000000
  11760:	avg = 117616.888889	median = 117507.000000
  11775:	avg = 117616.870370	median = 117507.000000
  11790:	avg = 117616.851852	median = 117507.000000
  11805:	avg = 117614.259259	median = 117507.000000
  11820:	avg = 117613.592593	median = 117507.000000
  11835:	avg = 117613.074074	median = 117507.000000
  11850:	avg = 117612.796296	median = 117507.000000
  11865:	avg = 117612.740741	median = 117507.000000
  11880:	avg = 117612.685185	median = 117506.500000
  11895:	avg = 117612.685185	median = 117506.500000
  11910:	avg = 117612.648148	median = 117506.500000
  11925:	avg = 117612.629630	median = 117506.500000
  11940:	avg = 117612.574074	median = 117506.500000
  11955:	avg = 117612.407407	median = 117506.500000
  11970:	avg = 117612.407407	median = 117506.500000
  11985:	avg = 117612.370370	median = 117506.500000
  12000:	avg = 117612.370370	median = 117506.500000
  12015:	avg = 117612.370370	median = 117506.500000
  12030:	avg = 117612.351852	median = 117506.500000
  12045:	avg = 117612.351852	median = 117506.500000
  12060:	avg = 117612.351852	median = 117506.500000
  12075:	avg = 117612.351852	median = 117506.500000
  12090:	avg = 117612.351852	median = 117506.500000
  12105:	avg = 117612.333333	median = 117506.500000
  12120:	avg = 117612.314815	median = 117506.500000
  12135:	avg = 117612.277778	median = 117505.500000
  12150:	avg = 117612.259259	median = 117505.000000
  12165:	avg = 117612.259259	median = 117505.000000
  12180:	avg = 117612.259259	median = 117505.000000
  12195:	avg = 117612.259259	median = 117505.000000
  12210:	avg = 117612.259259	median = 117505.000000
  12225:	avg = 117612.240741	median = 117505.000000
  12240:	avg = 117612.240741	median = 117505.000000
  12255:	avg = 117612.240741	median = 117505.000000
  12270:	avg = 117612.240741	median = 117505.000000
  12285:	avg = 117612.240741	median = 117505.000000
  12300:	avg = 117612.240741	median = 117505.000000
  12315:	avg = 117612.240741	median = 117505.000000
  12330:	avg = 117612.240741	median = 117505.000000
  12345:	avg = 117612.240741	median = 117505.000000
  12360:	avg = 117612.222222	median = 117505.000000
  12375:	avg = 117612.222222	median = 117505.000000
  12390:	avg = 117612.222222	median = 117505.000000
  12405:	avg = 117612.222222	median = 117505.000000
  12420:	avg = 117612.222222	median = 117505.000000
  12435:	avg = 117612.222222	median = 117505.000000
  12450:	avg = 117612.222222	median = 117505.000000
  12465:	avg = 117612.222222	median = 117505.000000
  12480:	avg = 117612.222222	median = 117505.000000
  12495:	avg = 117612.203704	median = 117505.000000
  12510:	avg = 117612.203704	median = 117505.000000
  12525:	avg = 117612.203704	median = 117505.000000
  12540:	avg = 117612.203704	median = 117505.000000
  12555:	avg = 117612.203704	median = 117505.000000
  12570:	avg = 117612.203704	median = 117505.000000
  12585:	avg = 117612.203704	median = 117505.000000
  12600:	avg = 117612.203704	median = 117505.000000
  12615:	avg = 117612.203704	median = 117505.000000
  12630:	avg = 117612.203704	median = 117505.000000
  12645:	avg = 117612.203704	median = 117505.000000
  12660:	avg = 117612.203704	median = 117505.000000
  12675:	avg = 117612.203704	median = 117505.000000
  12690:	avg = 117612.203704	median = 117505.000000
  12705:	avg = 117612.203704	median = 117505.000000
  12720:	avg = 117612.203704	median = 117505.000000
  12735:	avg = 117612.203704	median = 117505.000000
  12750:	avg = 117612.185185	median = 117504.500000
  12765:	avg = 117612.185185	median = 117504.500000
  12780:	avg = 117612.111111	median = 117504.500000
  12795:	avg = 117612.111111	median = 117504.500000
  12810:	avg = 117612.111111	median = 117504.500000
  12825:	avg = 117612.111111	median = 117504.500000
  12840:	avg = 117612.092593	median = 117504.500000
  12855:	avg = 117612.092593	median = 117504.500000
  12870:	avg = 117612.074074	median = 117504.500000
  12885:	avg = 117612.074074	median = 117504.500000
  12900:	avg = 117612.074074	median = 117504.500000
  12915:	avg = 117612.074074	median = 117504.500000
  12930:	avg = 117612.074074	median = 117504.500000
  12945:	avg = 117612.074074	median = 117504.500000
  12960:	avg = 117612.074074	median = 117504.500000
  12975:	avg = 117612.074074	median = 117504.500000
  12990:	avg = 117612.074074	median = 117504.500000
  13005:	avg = 117612.074074	median = 117504.500000
  13020:	avg = 117612.074074	median = 117504.500000
  13035:	avg = 117612.074074	median = 117504.500000
  13050:	avg = 117612.074074	median = 117504.500000
  13065:	avg = 117612.074074	median = 117504.500000
  13080:	avg = 117612.074074	median = 117504.500000
  13095:	avg = 117612.074074	median = 117504.500000
  13110:	avg = 117612.074074	median = 117504.500000
  13125:	avg = 117612.055556	median = 117504.500000
  13140:	avg = 117612.055556	median = 117504.500000
  13155:	avg = 117612.055556	median = 117504.500000
  13170:	avg = 117612.055556	median = 117504.500000
  13185:	avg = 117612.055556	median = 117504.500000
  13200:	avg = 117612.055556	median = 117504.500000
  13215:	avg = 117612.055556	median = 117504.500000
  13230:	avg = 117612.055556	median = 117504.500000
  13245:	avg = 117612.055556	median = 117504.500000
  13260:	avg = 117612.055556	median = 117504.500000
  13275:	avg = 117612.055556	median = 117504.500000
  13290:	avg = 117612.055556	median = 117504.500000
  13305:	avg = 117612.055556	median = 117504.500000
  13320:	avg = 117612.055556	median = 117504.500000
  13335:	avg = 117612.055556	median = 117504.500000
  13350:	avg = 117612.055556	median = 117504.500000
  13365:	avg = 117612.055556	median = 117504.500000
  13380:	avg = 117612.055556	median = 117504.500000
  13395:	avg = 117612.055556	median = 117504.500000
  13410:	avg = 117612.055556	median = 117504.500000
  13425:	avg = 117612.055556	median = 117504.500000
  13440:	avg = 117612.055556	median = 117504.500000
  13455:	avg = 117612.055556	median = 117504.500000
  13470:	avg = 117612.055556	median = 117504.500000
  13485:	avg = 117612.055556	median = 117504.500000
  13500:	avg = 117612.055556	median = 117504.500000
  13515:	avg = 117612.055556	median = 117504.500000
  13530:	avg = 117612.055556	median = 117504.500000
  13545:	avg = 117612.055556	median = 117504.500000
  13560:	avg = 117612.055556	median = 117504.500000
  13575:	avg = 117612.037037	median = 117504.500000
  13590:	avg = 117612.037037	median = 117504.500000
  13605:	avg = 117612.037037	median = 117504.500000
  13620:	avg = 117612.037037	median = 117504.500000
  13635:	avg = 117612.037037	median = 117504.500000
  13650:	avg = 117612.037037	median = 117504.500000
  13665:	avg = 117612.037037	median = 117504.500000
  13680:	avg = 117612.037037	median = 117504.500000
  13695:	avg = 117612.037037	median = 117504.500000
  13710:	avg = 117612.037037	median = 117504.500000
  13725:	avg = 117612.037037	median = 117504.500000
  13740:	avg = 117612.037037	median = 117504.500000
  13755:	avg = 117612.037037	median = 117504.500000
  13770:	avg = 117612.037037	median = 117504.500000
  13785:	avg = 117612.037037	median = 117504.500000
  13800:	avg = 117612.037037	median = 117504.500000
  13815:	avg = 117612.037037	median = 117504.500000
  13830:	avg = 117612.037037	median = 117504.500000
  13845:	avg = 117612.037037	median = 117504.500000
  13860:	avg = 117612.037037	median = 117504.500000
  13875:	avg = 117612.037037	median = 117504.500000
  13890:	avg = 117612.037037	median = 117504.500000
  13905:	avg = 117612.037037	median = 117504.500000
  13920:	avg = 117612.037037	median = 117504.500000
  13935:	avg = 117612.037037	median = 117504.500000
  13950:	avg = 117612.037037	median = 117504.500000
  13965:	avg = 117612.037037	median = 117504.500000
  13980:	avg = 117612.037037	median = 117504.500000
  13995:	avg = 117612.037037	median = 117504.500000
  14010:	avg = 117612.037037	median = 117504.500000
  14025:	avg = 117612.037037	median = 117504.500000
  14040:	avg = 117612.037037	median = 117504.500000
  14055:	avg = 117612.037037	median = 117504.500000
  14070:	avg = 117612.037037	median = 117504.500000
  14085:	avg = 117612.037037	median = 117504.500000
  14100:	avg = 117612.037037	median = 117504.500000
  14115:	avg = 117612.037037	median = 117504.500000
  14130:	avg = 117612.037037	median = 117504.500000
  14145:	avg = 117612.037037	median = 117504.500000
  14160:	avg = 117612.037037	median = 117504.500000
  14175:	avg = 117612.037037	median = 117504.500000
  14190:	avg = 117612.037037	median = 117504.500000
  14205:	avg = 117612.037037	median = 117504.500000
  14220:	avg = 117612.037037	median = 117504.500000
  14235:	avg = 117612.037037	median = 117504.500000
  14250:	avg = 117612.037037	median = 117504.500000
  14265:	avg = 117612.037037	median = 117504.500000
  14280:	avg = 117612.037037	median = 117504.500000
  14295:	avg = 117612.037037	median = 117504.500000
  14310:	avg = 117612.037037	median = 117504.500000
  14325:	avg = 117612.037037	median = 117504.500000
  14340:	avg = 117612.037037	median = 117504.500000
  14355:	avg = 117612.037037	median = 117504.500000
  14370:	avg = 117612.037037	median = 117504.500000
  14385:	avg = 117612.037037	median = 117504.500000
  14400:	avg = 117612.037037	median = 117504.500000
  14415:	avg = 117612.037037	median = 117504.500000
  14430:	avg = 117612.037037	median = 117504.500000
  14445:	avg = 117612.037037	median = 117504.500000
  14460:	avg = 117612.037037	median = 117504.500000
  14475:	avg = 117612.037037	median = 117504.500000
  14490:	avg = 117612.037037	median = 117504.500000
  14505:	avg = 117612.037037	median = 117504.500000
  14520:	avg = 117612.037037	median = 117504.500000
  14535:	avg = 117612.037037	median = 117504.500000
  14550:	avg = 117612.037037	median = 117504.500000
  14565:	avg = 117612.037037	median = 117504.500000
  14580:	avg = 117612.037037	median = 117504.500000
  14595:	avg = 117612.037037	median = 117504.500000
  14610:	avg = 117612.037037	median = 117504.500000
  14625:	avg = 117612.037037	median = 117504.500000
  14640:	avg = 117612.037037	median = 117504.500000
  14655:	avg = 117612.037037	median = 117504.500000
  14670:	avg = 117612.000000	median = 117503.500000
  14685:	avg = 117612.000000	median = 117503.500000
  14700:	avg = 117612.000000	median = 117503.500000
  14715:	avg = 117612.000000	median = 117503.500000
  14730:	avg = 117612.000000	median = 117503.500000
  14745:	avg = 117612.000000	median = 117503.500000
  14760:	avg = 117612.000000	median = 117503.500000
  14775:	avg = 117612.000000	median = 117503.500000
  14790:	avg = 117612.000000	median = 117503.500000
  14805:	avg = 117612.000000	median = 117503.500000
  14820:	avg = 117612.000000	median = 117503.500000
  14835:	avg = 117612.000000	median = 117503.500000
  14850:	avg = 117612.000000	median = 117503.500000
  14865:	avg = 117612.000000	median = 117503.500000
  14880:	avg = 117612.000000	median = 117503.500000
  14895:	avg = 117608.759259	median = 117503.500000
  14910:	avg = 117602.870370	median = 117503.500000
  14925:	avg = 117602.814815	median = 117503.500000
  14940:	avg = 117602.814815	median = 117503.500000
  14955:	avg = 117602.814815	median = 117503.500000
  14970:	avg = 117602.814815	median = 117503.500000
  14985:	avg = 117602.814815	median = 117503.500000
  15000:	avg = 117602.814815	median = 117503.500000